…
I find that ifelse() is particularly useful, since you can use it to replace only a subset of values in any column of choice. For example, if we wanted to raise the price of all diamonds with a currrent price over 2000 by 3000, we could say:

``` r
(raise_price <- diamonds %>% 
  mutate(price = ifelse(price > 2000, price+3000, price)))
```

    ## # A tibble: 53,940 x 10
    ##    carat cut       color clarity depth table price     x     y     z
    ##    <dbl> <ord>     <ord> <ord>   <dbl> <dbl> <dbl> <dbl> <dbl> <dbl>
    ##  1 0.230 Ideal     E     SI2      61.5   55.  326.  3.95  3.98  2.43
    ##  2 0.210 Premium   E     SI1      59.8   61.  326.  3.89  3.84  2.31
    ##  3 0.230 Good      E     VS1      56.9   65.  327.  4.05  4.07  2.31
    ##  4 0.290 Premium   I     VS2      62.4   58.  334.  4.20  4.23  2.63
    ##  5 0.310 Good      J     SI2      63.3   58.  335.  4.34  4.35  2.75
    ##  6 0.240 Very Good J     VVS2     62.8   57.  336.  3.94  3.96  2.48
    ##  7 0.240 Very Good I     VVS1     62.3   57.  336.  3.95  3.98  2.47
    ##  8 0.260 Very Good H     SI1      61.9   55.  337.  4.07  4.11  2.53
    ##  9 0.220 Fair      E     VS2      65.1   61.  337.  3.87  3.78  2.49
    ## 10 0.230 Very Good H     VS1      59.4   61.  338.  4.00  4.05  2.39
    ## # ... with 53,930 more rows
…
