…
df <- tibble(
  word = words, 
  i = seq_along(word)
)
# calculate number of vowels and proportion of vowels by word
vowels <- df %>%
  mutate ( num_vowels = str_count(words, "[aeiou]"),
           length_word = str_length(words),
           proportion_vowel = num_vowels/length_word)
# sort by words with highest number or proportion of vowels
vowels %>%
  arrange (desc(num_vowels))
```

    ## # A tibble: 980 x 5
    ##    word            i num_vowels length_word proportion_vowel
    ##    <chr>       <int>      <int>       <int>            <dbl>
    ##  1 appropriate    48          5          11            0.455
    ##  2 associate      57          5           9            0.556
    ##  3 available      62          5           9            0.556
    ##  4 colleague     166          5           9            0.556
    ##  5 encourage     268          5           9            0.556
    ##  6 experience    292          5          10            0.5  
    ##  7 individual    423          5          10            0.5  
    ##  8 television    846          5          10            0.5  
    ##  9 absolute        4          4           8            0.5  
    ## 10 achieve         7          4           7            0.571
    ## # ... with 970 more rows

``` r
vowels %>%
  arrange (desc(proportion_vowel))
```

    ## # A tibble: 980 x 5
    ##    word       i num_vowels length_word proportion_vowel
    ##    <chr>  <int>      <int>       <int>            <dbl>
    ##  1 a          1          1           1            1    
    ##  2 area      49          3           4            0.75 
    ##  3 idea     412          3           4            0.75 
    ##  4 age       22          2           3            0.667
    ##  5 ago       24          2           3            0.667
    ##  6 air       26          2           3            0.667
    ##  7 die      228          2           3            0.667
    ##  8 due      250          2           3            0.667
    ##  9 eat      256          2           3            0.667
    ## 10 europe   278          4           6            0.667
    ## # ... with 970 more rows
…
``` r
# use tidyr::extract() to extract matches for each part of the regex and display output in a neat table
tibble(sentence = sentences) %>% 
  tidyr::extract(
    sentence, c("complete_number", "number","teen_or_ty", "word"), afternumber, 
    remove = FALSE
  ) %>%
  select(sentence, complete_number, word) %>%
  na.omit()
```

    ## # A tibble: 26 x 3
    ##    sentence                                    complete_number word   
    ##    <chr>                                       <chr>           <chr>  
    ##  1 The girl at the booth sold fifty bonds.     fifty           bonds. 
    ##  2 The rope will bind the seven books at once. seven           books  
    ##  3 The two met while playing on the sand.      two             met    
    ##  4 The lease ran out in sixteen weeks.         sixteen         weeks. 
    ##  5 There are more than two factors here.       two             factors
    ##  6 Type out three lists of orders.             three           lists  
    ##  7 He said the same phrase thirty times.       thirty          times. 
    ##  8 Two plus seven is less than ten.            seven           is     
    ##  9 Drop the two when you add the figures.      two             when   
    ## 10 There the flood mark is ten inches.         ten             inches.
    ## # ... with 16 more rows
…
    ## [1] "The"   "Glue"  "It's"  "These" "Rice"  "The"

``` r
# use group_by, count(), and arrange() to find the top 5 words
tibble(word_vector) %>%
  group_by(word_vector) %>%
  count() %>%
  arrange(desc(n))
```

    ## # A tibble: 2,062 x 2
    ## # Groups:   word_vector [2,062]
    ##    word_vector     n
    ##    <chr>       <int>
    ##  1 ""           2892
    ##  2 the           489
    ##  3 The           262
    ##  4 of            132
    ##  5 a             130
    ##  6 to            119
    ##  7 and           118
    ##  8 in             85
    ##  9 is             81
    ## 10 A              72
    ## # ... with 2,052 more rows
…
