…
``` r
filter(mpg, cyl == 8)
```

    ## Warning: package 'bindrcpp' was built under R version 3.3.2

    ## # A tibble: 70 x 11
    ##    manufacturer model     displ  year   cyl trans  drv     cty   hwy fl   
    ##    <chr>        <chr>     <dbl> <int> <int> <chr>  <chr> <int> <int> <chr>
    ##  1 audi         a6 quatt…  4.20  2008     8 auto(… 4        16    23 p    
    ##  2 chevrolet    c1500 su…  5.30  2008     8 auto(… r        14    20 r    
    ##  3 chevrolet    c1500 su…  5.30  2008     8 auto(… r        11    15 e    
    ##  4 chevrolet    c1500 su…  5.30  2008     8 auto(… r        14    20 r    
    ##  5 chevrolet    c1500 su…  5.70  1999     8 auto(… r        13    17 r    
    ##  6 chevrolet    c1500 su…  6.00  2008     8 auto(… r        12    17 r    
    ##  7 chevrolet    corvette   5.70  1999     8 manua… r        16    26 p    
    ##  8 chevrolet    corvette   5.70  1999     8 auto(… r        15    23 p    
    ##  9 chevrolet    corvette   6.20  2008     8 manua… r        16    26 p    
    ## 10 chevrolet    corvette   6.20  2008     8 auto(… r        15    25 p    
    ## # ... with 60 more rows, and 1 more variable: class <chr>

``` r
filter(diamonds, carat > 3)
```

    ## # A tibble: 32 x 10
    ##    carat cut     color clarity depth table price     x     y     z
    ##    <dbl> <ord>   <ord> <ord>   <dbl> <dbl> <int> <dbl> <dbl> <dbl>
    ##  1  3.01 Premium I     I1       62.7   58.  8040  9.10  8.97  5.67
    ##  2  3.11 Fair    J     I1       65.9   57.  9823  9.15  9.02  5.98
    ##  3  3.01 Premium F     I1       62.2   56.  9925  9.24  9.13  5.73
    ##  4  3.05 Premium E     I1       60.9   58. 10453  9.26  9.25  5.66
    ##  5  3.02 Fair    I     I1       65.2   56. 10577  9.11  9.02  5.91
    ##  6  3.01 Fair    H     I1       56.1   62. 10761  9.54  9.38  5.31
    ##  7  3.65 Fair    H     I1       67.1   53. 11668  9.53  9.48  6.38
    ##  8  3.24 Premium H     I1       62.1   58. 12300  9.44  9.40  5.85
    ##  9  3.22 Ideal   I     I1       62.6   55. 12545  9.49  9.42  5.92
    ## 10  3.50 Ideal   H     I1       62.8   57. 12587  9.65  9.59  6.03
    ## # ... with 22 more rows
…
The data that we will work with in chapter 5 is from the nycflights13 package.

``` r
library(tidyverse)
library(nycflights13)
```

    ## Warning: package 'nycflights13' was built under R version 3.3.2

``` r
flights
```

    ## # A tibble: 336,776 x 19
    ##     year month   day dep_time sched_dep_time dep_delay arr_time
    ##    <int> <int> <int>    <int>          <int>     <dbl>    <int>
    ##  1  2013     1     1      517            515        2.      830
    ##  2  2013     1     1      533            529        4.      850
    ##  3  2013     1     1      542            540        2.      923
    ##  4  2013     1     1      544            545       -1.     1004
    ##  5  2013     1     1      554            600       -6.      812
    ##  6  2013     1     1      554            558       -4.      740
    ##  7  2013     1     1      555            600       -5.      913
    ##  8  2013     1     1      557            600       -3.      709
    ##  9  2013     1     1      557            600       -3.      838
    ## 10  2013     1     1      558            600       -2.      753
    ## # ... with 336,766 more rows, and 12 more variables: sched_arr_time <int>,
    ## #   arr_delay <dbl>, carrier <chr>, flight <int>, tailnum <chr>,
    ## #   origin <chr>, dest <chr>, air_time <dbl>, distance <dbl>, hour <dbl>,
    ## #   minute <dbl>, time_hour <dttm>

5.2 Filter rows with filter()
-----------------------------

filter() will subset obervations based on their values. I think it works a lot like the which() function in base R (ie: data\[which(data$variable &gt; value),\] ). Below is a way to do the same thing using either filter() or base R which().

``` r
# tidyverse filter() output
filter(flights, month == 1, day == 1)
```

    ## # A tibble: 842 x 19
    ##     year month   day dep_time sched_dep_time dep_delay arr_time
    ##    <int> <int> <int>    <int>          <int>     <dbl>    <int>
    ##  1  2013     1     1      517            515        2.      830
    ##  2  2013     1     1      533            529        4.      850
    ##  3  2013     1     1      542            540        2.      923
    ##  4  2013     1     1      544            545       -1.     1004
    ##  5  2013     1     1      554            600       -6.      812
    ##  6  2013     1     1      554            558       -4.      740
    ##  7  2013     1     1      555            600       -5.      913
    ##  8  2013     1     1      557            600       -3.      709
    ##  9  2013     1     1      557            600       -3.      838
    ## 10  2013     1     1      558            600       -2.      753
    ## # ... with 832 more rows, and 12 more variables: sched_arr_time <int>,
    ## #   arr_delay <dbl>, carrier <chr>, flight <int>, tailnum <chr>,
    ## #   origin <chr>, dest <chr>, air_time <dbl>, distance <dbl>, hour <dbl>,
    ## #   minute <dbl>, time_hour <dttm>

``` r
# base R way to get the same output
flights[which(flights$month ==1 & flights$day ==1),]
```

    ## # A tibble: 842 x 19
    ##     year month   day dep_time sched_dep_time dep_delay arr_time
    ##    <int> <int> <int>    <int>          <int>     <dbl>    <int>
    ##  1  2013     1     1      517            515        2.      830
    ##  2  2013     1     1      533            529        4.      850
    ##  3  2013     1     1      542            540        2.      923
    ##  4  2013     1     1      544            545       -1.     1004
    ##  5  2013     1     1      554            600       -6.      812
    ##  6  2013     1     1      554            558       -4.      740
    ##  7  2013     1     1      555            600       -5.      913
    ##  8  2013     1     1      557            600       -3.      709
    ##  9  2013     1     1      557            600       -3.      838
    ## 10  2013     1     1      558            600       -2.      753
    ## # ... with 832 more rows, and 12 more variables: sched_arr_time <int>,
    ## #   arr_delay <dbl>, carrier <chr>, flight <int>, tailnum <chr>,
    ## #   origin <chr>, dest <chr>, air_time <dbl>, distance <dbl>, hour <dbl>,
    ## #   minute <dbl>, time_hour <dttm>
…
    ## [1] TRUE

5.2.2 Logical Operators
-----------------------

There are many ways to combine "and", `&`, "or", `|`, and "not",`!` to filter out observations in a data table.

``` r
#following two filter functions give same output
filter(flights, month == 11 | month == 12)
```

    ## # A tibble: 55,403 x 19
    ##     year month   day dep_time sched_dep_time dep_delay arr_time
    ##    <int> <int> <int>    <int>          <int>     <dbl>    <int>
    ##  1  2013    11     1        5           2359        6.      352
    ##  2  2013    11     1       35           2250      105.      123
    ##  3  2013    11     1      455            500       -5.      641
    ##  4  2013    11     1      539            545       -6.      856
    ##  5  2013    11     1      542            545       -3.      831
    ##  6  2013    11     1      549            600      -11.      912
    ##  7  2013    11     1      550            600      -10.      705
    ##  8  2013    11     1      554            600       -6.      659
    ##  9  2013    11     1      554            600       -6.      826
    ## 10  2013    11     1      554            600       -6.      749
    ## # ... with 55,393 more rows, and 12 more variables: sched_arr_time <int>,
    ## #   arr_delay <dbl>, carrier <chr>, flight <int>, tailnum <chr>,
    ## #   origin <chr>, dest <chr>, air_time <dbl>, distance <dbl>, hour <dbl>,
    ## #   minute <dbl>, time_hour <dttm>

``` r
filter(flights, month %in% c(11,12))
```

    ## # A tibble: 55,403 x 19
    ##     year month   day dep_time sched_dep_time dep_delay arr_time
    ##    <int> <int> <int>    <int>          <int>     <dbl>    <int>
    ##  1  2013    11     1        5           2359        6.      352
    ##  2  2013    11     1       35           2250      105.      123
    ##  3  2013    11     1      455            500       -5.      641
    ##  4  2013    11     1      539            545       -6.      856
    ##  5  2013    11     1      542            545       -3.      831
    ##  6  2013    11     1      549            600      -11.      912
    ##  7  2013    11     1      550            600      -10.      705
    ##  8  2013    11     1      554            600       -6.      659
    ##  9  2013    11     1      554            600       -6.      826
    ## 10  2013    11     1      554            600       -6.      749
    ## # ... with 55,393 more rows, and 12 more variables: sched_arr_time <int>,
    ## #   arr_delay <dbl>, carrier <chr>, flight <int>, tailnum <chr>,
    ## #   origin <chr>, dest <chr>, air_time <dbl>, distance <dbl>, hour <dbl>,
    ## #   minute <dbl>, time_hour <dttm>

``` r
#following two filter functions give same output
filter(flights, !(arr_delay > 120 | dep_delay > 120))
```

    ## # A tibble: 316,050 x 19
    ##     year month   day dep_time sched_dep_time dep_delay arr_time
    ##    <int> <int> <int>    <int>          <int>     <dbl>    <int>
    ##  1  2013     1     1      517            515        2.      830
    ##  2  2013     1     1      533            529        4.      850
    ##  3  2013     1     1      542            540        2.      923
    ##  4  2013     1     1      544            545       -1.     1004
    ##  5  2013     1     1      554            600       -6.      812
    ##  6  2013     1     1      554            558       -4.      740
    ##  7  2013     1     1      555            600       -5.      913
    ##  8  2013     1     1      557            600       -3.      709
    ##  9  2013     1     1      557            600       -3.      838
    ## 10  2013     1     1      558            600       -2.      753
    ## # ... with 316,040 more rows, and 12 more variables: sched_arr_time <int>,
    ## #   arr_delay <dbl>, carrier <chr>, flight <int>, tailnum <chr>,
    ## #   origin <chr>, dest <chr>, air_time <dbl>, distance <dbl>, hour <dbl>,
    ## #   minute <dbl>, time_hour <dttm>

``` r
filter(flights, arr_delay <= 120 & !dep_delay > 120)
```

    ## # A tibble: 316,050 x 19
    ##     year month   day dep_time sched_dep_time dep_delay arr_time
    ##    <int> <int> <int>    <int>          <int>     <dbl>    <int>
    ##  1  2013     1     1      517            515        2.      830
    ##  2  2013     1     1      533            529        4.      850
    ##  3  2013     1     1      542            540        2.      923
    ##  4  2013     1     1      544            545       -1.     1004
    ##  5  2013     1     1      554            600       -6.      812
    ##  6  2013     1     1      554            558       -4.      740
    ##  7  2013     1     1      555            600       -5.      913
    ##  8  2013     1     1      557            600       -3.      709
    ##  9  2013     1     1      557            600       -3.      838
    ## 10  2013     1     1      558            600       -2.      753
    ## # ... with 316,040 more rows, and 12 more variables: sched_arr_time <int>,
    ## #   arr_delay <dbl>, carrier <chr>, flight <int>, tailnum <chr>,
    ## #   origin <chr>, dest <chr>, air_time <dbl>, distance <dbl>, hour <dbl>,
    ## #   minute <dbl>, time_hour <dttm>
…
5.2.4 Exercises
---------------

### 1. Find all flights that

-   Had an arrival delay of two or more hours

``` r
# arr_delay is in minutes, so 120 for two hours
filter(flights, arr_delay >= 120)
```

    ## # A tibble: 10,200 x 19
    ##     year month   day dep_time sched_dep_time dep_delay arr_time
    ##    <int> <int> <int>    <int>          <int>     <dbl>    <int>
    ##  1  2013     1     1      811            630      101.     1047
    ##  2  2013     1     1      848           1835      853.     1001
    ##  3  2013     1     1      957            733      144.     1056
    ##  4  2013     1     1     1114            900      134.     1447
    ##  5  2013     1     1     1505           1310      115.     1638
    ##  6  2013     1     1     1525           1340      105.     1831
    ##  7  2013     1     1     1549           1445       64.     1912
    ##  8  2013     1     1     1558           1359      119.     1718
    ##  9  2013     1     1     1732           1630       62.     2028
    ## 10  2013     1     1     1803           1620      103.     2008
    ## # ... with 10,190 more rows, and 12 more variables: sched_arr_time <int>,
    ## #   arr_delay <dbl>, carrier <chr>, flight <int>, tailnum <chr>,
    ## #   origin <chr>, dest <chr>, air_time <dbl>, distance <dbl>, hour <dbl>,
    ## #   minute <dbl>, time_hour <dttm>

-   Flew to Houston (IAH or HOU)

``` r
filter(flights, dest == "IAH" | dest == "HOU")
```

    ## # A tibble: 9,313 x 19
    ##     year month   day dep_time sched_dep_time dep_delay arr_time
    ##    <int> <int> <int>    <int>          <int>     <dbl>    <int>
    ##  1  2013     1     1      517            515        2.      830
    ##  2  2013     1     1      533            529        4.      850
    ##  3  2013     1     1      623            627       -4.      933
    ##  4  2013     1     1      728            732       -4.     1041
    ##  5  2013     1     1      739            739        0.     1104
    ##  6  2013     1     1      908            908        0.     1228
    ##  7  2013     1     1     1028           1026        2.     1350
    ##  8  2013     1     1     1044           1045       -1.     1352
    ##  9  2013     1     1     1114            900      134.     1447
    ## 10  2013     1     1     1205           1200        5.     1503
    ## # ... with 9,303 more rows, and 12 more variables: sched_arr_time <int>,
    ## #   arr_delay <dbl>, carrier <chr>, flight <int>, tailnum <chr>,
    ## #   origin <chr>, dest <chr>, air_time <dbl>, distance <dbl>, hour <dbl>,
    ## #   minute <dbl>, time_hour <dttm>
…
``` r
#find all unique carriers:
unique(flights$carrier)
```

    ##  [1] "UA" "AA" "B6" "DL" "EV" "MQ" "US" "WN" "VX" "FL" "AS" "9E" "F9" "HA"
    ## [15] "YV" "OO"

``` r
#Symbol for United = UA, American = AA, Delta = DL
filter (flights, carrier %in% c("UA", "AA","DL"))
```

    ## # A tibble: 139,504 x 19
    ##     year month   day dep_time sched_dep_time dep_delay arr_time
    ##    <int> <int> <int>    <int>          <int>     <dbl>    <int>
    ##  1  2013     1     1      517            515        2.      830
    ##  2  2013     1     1      533            529        4.      850
    ##  3  2013     1     1      542            540        2.      923
    ##  4  2013     1     1      554            600       -6.      812
    ##  5  2013     1     1      554            558       -4.      740
    ##  6  2013     1     1      558            600       -2.      753
    ##  7  2013     1     1      558            600       -2.      924
    ##  8  2013     1     1      558            600       -2.      923
    ##  9  2013     1     1      559            600       -1.      941
    ## 10  2013     1     1      559            600       -1.      854
    ## # ... with 139,494 more rows, and 12 more variables: sched_arr_time <int>,
    ## #   arr_delay <dbl>, carrier <chr>, flight <int>, tailnum <chr>,
    ## #   origin <chr>, dest <chr>, air_time <dbl>, distance <dbl>, hour <dbl>,
    ## #   minute <dbl>, time_hour <dttm>

-   Departed in summer (July, August, and September)

``` r
filter (flights, month >= 7 & month <=9)
```

    ## # A tibble: 86,326 x 19
    ##     year month   day dep_time sched_dep_time dep_delay arr_time
    ##    <int> <int> <int>    <int>          <int>     <dbl>    <int>
    ##  1  2013     7     1        1           2029      212.      236
    ##  2  2013     7     1        2           2359        3.      344
    ##  3  2013     7     1       29           2245      104.      151
    ##  4  2013     7     1       43           2130      193.      322
    ##  5  2013     7     1       44           2150      174.      300
    ##  6  2013     7     1       46           2051      235.      304
    ##  7  2013     7     1       48           2001      287.      308
    ##  8  2013     7     1       58           2155      183.      335
    ##  9  2013     7     1      100           2146      194.      327
    ## 10  2013     7     1      100           2245      135.      337
    ## # ... with 86,316 more rows, and 12 more variables: sched_arr_time <int>,
    ## #   arr_delay <dbl>, carrier <chr>, flight <int>, tailnum <chr>,
    ## #   origin <chr>, dest <chr>, air_time <dbl>, distance <dbl>, hour <dbl>,
    ## #   minute <dbl>, time_hour <dttm>

``` r
# test whether the output only has months 7 8 9 to check our work.
unique(filter (flights, month >= 7 & month <=9)$month)
```

    ## [1] 7 8 9

-   Arrived more than two hours late, but didn’t leave late

``` r
filter (flights, arr_delay > 120, dep_delay <=0)
```

    ## # A tibble: 29 x 19
    ##     year month   day dep_time sched_dep_time dep_delay arr_time
    ##    <int> <int> <int>    <int>          <int>     <dbl>    <int>
    ##  1  2013     1    27     1419           1420       -1.     1754
    ##  2  2013    10     7     1350           1350        0.     1736
    ##  3  2013    10     7     1357           1359       -2.     1858
    ##  4  2013    10    16      657            700       -3.     1258
    ##  5  2013    11     1      658            700       -2.     1329
    ##  6  2013     3    18     1844           1847       -3.       39
    ##  7  2013     4    17     1635           1640       -5.     2049
    ##  8  2013     4    18      558            600       -2.     1149
    ##  9  2013     4    18      655            700       -5.     1213
    ## 10  2013     5    22     1827           1830       -3.     2217
    ## # ... with 19 more rows, and 12 more variables: sched_arr_time <int>,
    ## #   arr_delay <dbl>, carrier <chr>, flight <int>, tailnum <chr>,
    ## #   origin <chr>, dest <chr>, air_time <dbl>, distance <dbl>, hour <dbl>,
    ## #   minute <dbl>, time_hour <dttm>

``` r
#looks like combining the two arguments into one does the same thing.
filter(flights, arr_delay > 120 & dep_delay <=0)
```

    ## # A tibble: 29 x 19
    ##     year month   day dep_time sched_dep_time dep_delay arr_time
    ##    <int> <int> <int>    <int>          <int>     <dbl>    <int>
    ##  1  2013     1    27     1419           1420       -1.     1754
    ##  2  2013    10     7     1350           1350        0.     1736
    ##  3  2013    10     7     1357           1359       -2.     1858
    ##  4  2013    10    16      657            700       -3.     1258
    ##  5  2013    11     1      658            700       -2.     1329
    ##  6  2013     3    18     1844           1847       -3.       39
    ##  7  2013     4    17     1635           1640       -5.     2049
    ##  8  2013     4    18      558            600       -2.     1149
    ##  9  2013     4    18      655            700       -5.     1213
    ## 10  2013     5    22     1827           1830       -3.     2217
    ## # ... with 19 more rows, and 12 more variables: sched_arr_time <int>,
    ## #   arr_delay <dbl>, carrier <chr>, flight <int>, tailnum <chr>,
    ## #   origin <chr>, dest <chr>, air_time <dbl>, distance <dbl>, hour <dbl>,
    ## #   minute <dbl>, time_hour <dttm>
…
