…
### 3. If you have the name of a variable stored in an object, e.g. var &lt;- "mpg", how can you extract the reference variable from a tibble?

If the name of the variable is stored in an object, you can pass the object in lieu of the variable name using \[\[\]\] or \[\] just as you would do so with the explicit variable name. You can even pass the object and another variable name to obtain multiple reference variables using c(). I provide an example below using the diamonds dataset.

``` r
var <- "carat"
var2 <- c("carat","price")

# extract only carat
diamonds[,var]
```

    ## # A tibble: 53,940 x 1
    ##    carat
    ##    <dbl>
    ##  1 0.23
    ##  2 0.21
    ##  3 0.23
    ##  4 0.290
    ##  5 0.31
    ##  6 0.24
    ##  7 0.24
    ##  8 0.26
    ##  9 0.22
    ## 10 0.23
    ## # ... with 53,930 more rows

``` r
#extract carat and price
diamonds[,c(var,"price")]
```

    ## # A tibble: 53,940 x 2
    ##    carat price
    ##    <dbl> <int>
    ##  1 0.23    326
    ##  2 0.21    326
    ##  3 0.23    327
    ##  4 0.290   334
    ##  5 0.31    335
    ##  6 0.24    336
    ##  7 0.24    336
    ##  8 0.26    337
    ##  9 0.22    337
    ## 10 0.23    338
    ## # ... with 53,930 more rows

``` r
diamonds[,var2]
```

    ## # A tibble: 53,940 x 2
    ##    carat price
    ##    <dbl> <int>
    ##  1 0.23    326
    ##  2 0.21    326
    ##  3 0.23    327
    ##  4 0.290   334
    ##  5 0.31    335
    ##  6 0.24    336
    ##  7 0.24    336
    ##  8 0.26    337
    ##  9 0.22    337
    ## 10 0.23    338
    ## # ... with 53,930 more rows
…
### 5. What does tibble::enframe() do? When might you use it?

Taken from the documentation: "enframe() converts named atomic vectors or lists to two-column data frames. For unnamed vectors, the natural sequence is used as name column." I might use this when I have a vector that I want to turn into a data.frame for graphing using ggplot, which requires data be in data.frame or tibble.

``` r
x = rnorm(100)
names(x) <- c(5:104)
enframe(x)
```

    ## # A tibble: 100 x 2
    ##    name   value
    ##    <chr>  <dbl>
    ##  1 5      1.64
    ##  2 6      0.424
    ##  3 7     -1.06
    ##  4 8      0.210
    ##  5 9     -0.888
    ##  6 10    -1.43
    ##  7 11    -1.90
    ##  8 12     0.747
    ##  9 13     0.604
    ## 10 14    -0.469
    ## # ... with 90 more rows
``` r
class(enframe(x))
```

    ## [1] "tbl_df"     "tbl"        "data.frame"

### 6. What option controls how many additional column names are printed at the footer of a tibble?

The documentation for ?format.tbl (tibble formatting) says that the n\_extra argument will control how many additional columns to print abbreviated information for. The example provided in the documentation is below, which only prints 2 of the additional columns (whereas the unmodified print(flights) would yield 5 additional columns in the footer).

``` r
print(nycflights13::flights, n_extra = 2)
```

    ## # A tibble: 336,776 x 19
    ##     year month   day dep_time sched_dep_time dep_delay arr_time
    ##    <int> <int> <int>    <int>          <int>     <dbl>    <int>
    ##  1  2013     1     1      517            515         2      830
    ##  2  2013     1     1      533            529         4      850
    ##  3  2013     1     1      542            540         2      923
    ##  4  2013     1     1      544            545        -1     1004
    ##  5  2013     1     1      554            600        -6      812
    ##  6  2013     1     1      554            558        -4      740
    ##  7  2013     1     1      555            600        -5      913
    ##  8  2013     1     1      557            600        -3      709
    ##  9  2013     1     1      557            600        -3      838
    ## 10  2013     1     1      558            600        -2      753
    ## # ... with 336,766 more rows, and 12 more variables: sched_arr_time <int>,
    ## #   arr_delay <dbl>, …
…
    ## Warning in rbind(names(probs), probs_f): number of columns of result is not
    ## a multiple of vector length (arg 1)

    ## Warning: 1000 parsing failures.
    ## row # A tibble: 5 x 5 col     row col   expected               actual             file               expected   <int> <chr> <chr>                  <chr>              <chr>              actual 1  1001 x     no trailing characters .23837975086644292 '/Library/Framewo… file 2  1002 x     no trailing characters .41167997173033655 '/Library/Framewo… row 3  1003 x     no trailing characters .7460716762579978  '/Library/Framewo… col 4  1004 x     no trailing characters .723450553836301   '/Library/Framewo… expected 5  1005 x     no trailing characters .614524137461558   '/Library/Framewo…
    ## ... ................. ... .......................................................................... ........ .......................................................................... ...... .......................................................................... .... .......................................................................... ... .......................................................................... ... .......................................................................... ........ ..........................................................................
    ## See problems(...) for more details.

Since the default only looks at the first 1000 rows, we can run into issues if the first 1000 rows or more have troubling characteristics. Here there are many issues displayed in the output after attempting to read the file in. It is very helpful that the error output displays what the function attempted to do. We see that it attempted to parse column x using col\_integer(), and column y using col\_character(). We can see more details by using problems():

``` r
problems(challenge)
```

    ## # A tibble: 1,000 x 5
    ##      row col   expected               actual             file             
    ##    <int> <chr> <chr>                  <chr>              <chr>            
    ##  1  1001 x     no trailing characters .23837975086644292 '/Library/Framew…
    ##  2  1002 x     no trailing characters .41167997173033655 '/Library/Framew…
    ##  3  1003 x     no trailing characters .7460716762579978  '/Library/Framew…
    ##  4  1004 x     no trailing characters .723450553836301   '/Library/Framew…
    ##  5  1005 x     no trailing characters .614524137461558   '/Library/Framew…
    ##  6  1006 x     no trailing characters .473980569280684   '/Library/Framew…
    ##  7  1007 x     no trailing characters .5784610391128808  '/Library/Framew…
    ##  8  1008 x     no trailing characters .2415937229525298  '/Library/Framew…
    ##  9  1009 x     no trailing characters .11437866208143532 '/Library/Framew…
    ## 10  1010 x     no trailing characters .2983446326106787  '/Library/Framew…
    ## # ... with 990 more rows
…
    ## [1] "double"

Hadley recommends that we should always examine the output of the read\_() function and re-specify the col\_parsers to match what is appropriate for the data. One strategy around this that he describes, which I think would probably be more straightforward if you have many, many columns of data, is to read everything in as a character, then use type\_convert() on the table to convert to the appropriate types. We can see in the example below that type\_convert() properly converts column x to double and column y to date formats.

``` r
challenge2 <- read_csv(readr_example("challenge.csv"),
  col_types = cols(.default = col_character())
)
challenge2
```

    ## # A tibble: 2,000 x 2
    ##    x     y    
    ##    <chr> <chr>
    ##  1 404   <NA>
    ##  2 4172  <NA>
    ##  3 3004  <NA>
    ##  4 787   <NA>
    ##  5 37    <NA>
    ##  6 2332  <NA>
    ##  7 2489  <NA>
    ##  8 1449  <NA>
    ##  9 3665  <NA>
    ## 10 3863  <NA>
    ## # ... with 1,990 more rows

``` r
type_convert(challenge2)
```

    ## Parsed with column specification:
    ## cols(
    ##   x = col_double(),
    ##   y = col_date(format = "")
    ## )

    ## # A tibble: 2,000 x 2
    ##        x y         
    ##    <dbl> <date>    
    ##  1   404 NA        
    ##  2  4172 NA        
    ##  3  3004 NA        
    ##  4   787 NA        
    ##  5    37 NA        
    ##  6  2332 NA        
    ##  7  2489 NA        
    ##  8  1449 NA        
    ##  9  3665 NA        
    ## 10  3863 NA        
    ## # ... with 1,990 more rows
…
12.6 Case Study
---------------

The case study presented uses the tidyr::who dataset, which is depicted below:

``` r
who
```

    ## # A tibble: 7,240 x 60
    ##    country     iso2  iso3   year new_sp_m014 new_sp_m1524 new_sp_m2534
    ##    <chr>       <chr> <chr> <int>       <int>        <int>        <int>
    ##  1 Afghanistan AF    AFG    1980          NA           NA           NA
    ##  2 Afghanistan AF    AFG    1981          NA           NA           NA
    ##  3 Afghanistan AF    AFG    1982          NA           NA           NA
    ##  4 Afghanistan AF    AFG    1983          NA           NA           NA
    ##  5 Afghanistan AF    AFG    1984          NA           NA           NA
    ##  6 Afghanistan AF    AFG    1985          NA           NA           NA
    ##  7 Afghanistan AF    AFG    1986          NA           NA           NA
    ##  8 Afghanistan AF    AFG    1987          NA           NA           NA
    ##  9 Afghanistan AF    AFG    1988          NA           NA           NA
    ## 10 Afghanistan AF    AFG    1989          NA           NA           NA
    ## # ... with 7,230 more rows, and 53 more variables: new_sp_m3544 <int>,
    ## #   new_sp_m4554 <int>, new_sp_m5564 <int>, new_sp_m65 <int>,
    ## #   new_sp_f014 <int>, new_sp_f1524 <int>, new_sp_f2534 <int>,
    ## #   new_sp_f3544 <int>, new_sp_f4554 <int>, new_sp_f5564 <int>,
    ## #   new_sp_f65 <int>, new_sn_m014 <int>, new_sn_m1524 <int>,
    ## #   new_sn_m2534 <int>, new_sn_m3544 <int>, new_sn_m4554 <int>,
    ## #   new_sn_m5564 <int>, new_sn_m65 <int>, new_sn_f014 <int>,
    ## #   new_sn_f1524 <int>, new_sn_f2534 <int>, new_sn_f3544 <int>,
    ## #   new_sn_f4554 <int>, new_sn_f5564 <int>, new_sn_f65 <int>,
…
Below are the steps taken to "tidy" this dataset. The columns to the right of year are recorded cases of TB for each of the specified cohorts, which can be gathered.

``` r
who1 <- who %>%
  gather(new_sp_m014:newrel_f65, key = "key", value = "cases", na.rm = TRUE)
who1
```

    ## # A tibble: 76,046 x 6
    ##    country     iso2  iso3   year key         cases
    ##  * <chr>       <chr> <chr> <int> <chr>       <int>
    ##  1 Afghanistan AF    AFG    1997 new_sp_m014     0
    ##  2 Afghanistan AF    AFG    1998 new_sp_m014    30
    ##  3 Afghanistan AF    AFG    1999 new_sp_m014     8
    ##  4 Afghanistan AF    AFG    2000 new_sp_m014    52
    ##  5 Afghanistan AF    AFG    2001 new_sp_m014   129
    ##  6 Afghanistan AF    AFG    2002 new_sp_m014    90
    ##  7 Afghanistan AF    AFG    2003 new_sp_m014   127
    ##  8 Afghanistan AF    AFG    2004 new_sp_m014   139
    ##  9 Afghanistan AF    AFG    2005 new_sp_m014   151
    ## 10 Afghanistan AF    AFG    2006 new_sp_m014   193
    ## # ... with 76,036 more rows

In order to prepare for using separate on "key", we need to standardize the format of the values. Most of the values have two underscores: one after "new" and one before the age range. However, one cohort does not have the first underscore after "new". The underscore can be added using str\_replace().

``` r
who2 <- who1 %>%
  mutate(key = stringr::str_replace(key, "newrel", "new_rel"))
who2
```

    ## # A tibble: 76,046 x 6
    ##    country     iso2  iso3   year key         cases
    ##    <chr>       <chr> <chr> <int> <chr>       <int>
    ##  1 Afghanistan AF    AFG    1997 new_sp_m014     0
    ##  2 Afghanistan AF    AFG    1998 new_sp_m014    30
    ##  3 Afghanistan AF    AFG    1999 new_sp_m014     8
    ##  4 Afghanistan AF    AFG    2000 new_sp_m014    52
    ##  5 Afghanistan AF    AFG    2001 new_sp_m014   129
    ##  6 Afghanistan AF    AFG    2002 new_sp_m014    90
    ##  7 Afghanistan AF    AFG    2003 new_sp_m014   127
    ##  8 Afghanistan AF    AFG    2004 new_sp_m014   139
    ##  9 Afghanistan AF    AFG    2005 new_sp_m014   151
    ## 10 Afghanistan AF    AFG    2006 new_sp_m014   193
    ## # ... with 76,036 more rows

Now that the format is standardized, the new, type, and sexage can be separated:

``` r
who3 <- who2 %>%
  separate(key, c("new", "type", "sexage"), sep = "_")
who3
```

    ## # A tibble: 76,046 x 8
    ##    country     iso2  iso3   year new   type  sexage cases
    ##    <chr>       <chr> <chr> <int> <chr> <chr> <chr>  <int>
    ##  1 Afghanistan AF    AFG    1997 new   sp    m014       0
    ##  2 Afghanistan AF    AFG    1998 new   sp    m014      30
    ##  3 Afghanistan AF    AFG    1999 new   sp    m014       8
    ##  4 Afghanistan AF    AFG    2000 new   sp    m014      52
    ##  5 Afghanistan AF    AFG    2001 new   sp    m014     129
    ##  6 Afghanistan AF    AFG    2002 new   sp    m014      90
    ##  7 Afghanistan AF    AFG    2003 new   sp    m014     127
    ##  8 Afghanistan AF    AFG    2004 new   sp    m014     139
    ##  9 Afghanistan AF    AFG    2005 new   sp    m014     151
    ## 10 Afghanistan AF    AFG    2006 new   sp    m014     193
    ## # ... with 76,036 more rows
…
``` r
who4 <- who3 %>%
  select(-new, -iso2, -iso3)
```

The sexage column can be futher separated into sex and age:

``` r
who5 <- who4 %>%
  separate(sexage, c("sex", "age"), sep = 1)
who5
```

    ## # A tibble: 76,046 x 6
    ##    country      year type  sex   age   cases
    ##    <chr>       <int> <chr> <chr> <chr> <int>
    ##  1 Afghanistan  1997 sp    m     014       0
    ##  2 Afghanistan  1998 sp    m     014      30
    ##  3 Afghanistan  1999 sp    m     014       8
    ##  4 Afghanistan  2000 sp    m     014      52
    ##  5 Afghanistan  2001 sp    m     014     129
    ##  6 Afghanistan  2002 sp    m     014      90
    ##  7 Afghanistan  2003 sp    m     014     127
    ##  8 Afghanistan  2004 sp    m     014     139
    ##  9 Afghanistan  2005 sp    m     014     151
    ## 10 Afghanistan  2006 sp    m     014     193
    ## # ... with 76,036 more rows

We can combine all the steps above using the pipe:

``` r
who %>%
  gather(code, value, new_sp_m014:newrel_f65, na.rm = TRUE) %>%
  mutate(code = stringr::str_replace(code, "newrel", "new_rel")) %>%
  separate(code, c("new", "var", "sexage")) %>%
  select(-new, -iso2, -iso3) %>%
  separate(sexage, c("sex", "age"), sep = 1)
```

    ## # A tibble: 76,046 x 6
    ##    country      year var   sex   age   value
    ##    <chr>       <int> <chr> <chr> <chr> <int>
    ##  1 Afghanistan  1997 sp    m     014       0
    ##  2 Afghanistan  1998 sp    m     014      30
    ##  3 Afghanistan  1999 sp    m     014       8
    ##  4 Afghanistan  2000 sp    m     014      52
    ##  5 Afghanistan  2001 sp    m     014     129
    ##  6 Afghanistan  2002 sp    m     014      90
    ##  7 Afghanistan  2003 sp    m     014     127
    ##  8 Afghanistan  2004 sp    m     014     139
    ##  9 Afghanistan  2005 sp    m     014     151
    ## 10 Afghanistan  2006 sp    m     014     193
    ## # ... with 76,036 more rows
…
The mutate() step is required to allow the separate() function to be applied in the same manner for all the values in the code column, because it changes instances of "newrel" to "new\_rel", which has an underscore after "new" like all the other entries in the column. Without the mutate() step, the rows with "newrel" in them will not be separated correctly by separate(). Below is the output after removing the mutate() step, which shows an error "Expected 3 pieces. Missing pieces filled with `NA` in 2580 rows..."

``` r
who %>%
  gather(code, value, new_sp_m014:newrel_f65, na.rm = TRUE) %>%
  separate(code, c("new", "var", "sexage")) %>%
  select(-new, -iso2, -iso3) %>%
  separate(sexage, c("sex", "age"), sep = 1)
```

    ## Warning: Expected 3 pieces. Missing pieces filled with `NA` in 2580 rows
    ## [73467, 73468, 73469, 73470, 73471, 73472, 73473, 73474, 73475, 73476,
    ## 73477, 73478, 73479, 73480, 73481, 73482, 73483, 73484, 73485, 73486, ...].

    ## # A tibble: 76,046 x 6
    ##    country      year var   sex   age   value
    ##  * <chr>       <int> <chr> <chr> <chr> <int>
    ##  1 Afghanistan  1997 sp    m     014       0
    ##  2 Afghanistan  1998 sp    m     014      30
    ##  3 Afghanistan  1999 sp    m     014       8
    ##  4 Afghanistan  2000 sp    m     014      52
    ##  5 Afghanistan  2001 sp    m     014     129
    ##  6 Afghanistan  2002 sp    m     014      90
    ##  7 Afghanistan  2003 sp    m     014     127
    ##  8 Afghanistan  2004 sp    m     014     139
    ##  9 Afghanistan  2005 sp    m     014     151
    ## 10 Afghanistan  2006 sp    m     014     193
    ## # ... with 76,036 more rows
…
``` r
library("tidyverse")
library("nycflights13")
```

The flights dataset in `nycflights13` has tibbles that can be used to practice relational data management:

``` r
# the complete flights table
flights
```

    ## # A tibble: 336,776 x 19
    ##     year month   day dep_time sched_dep_time dep_delay arr_time
    ##    <int> <int> <int>    <int>          <int>     <dbl>    <int>
    ##  1  2013     1     1      517            515         2      830
    ##  2  2013     1     1      533            529         4      850
    ##  3  2013     1     1      542            540         2      923
    ##  4  2013     1     1      544            545        -1     1004
    ##  5  2013     1     1      554            600        -6      812
    ##  6  2013     1     1      554            558        -4      740
    ##  7  2013     1     1      555            600        -5      913
    ##  8  2013     1     1      557            600        -3      709
    ##  9  2013     1     1      557            600        -3      838
    ## 10  2013     1     1      558            600        -2      753
    ## # ... with 336,766 more rows, and 12 more variables: sched_arr_time <int>,
    ## #   arr_delay <dbl>, carrier <chr>, flight <int>, tailnum <chr>,
    ## #   origin <chr>, dest <chr>, air_time <dbl>, distance <dbl>, hour <dbl>,
    ## #   minute <dbl>, time_hour <dttm>
…
``` r
# info on airports
airports
```

    ## # A tibble: 1,458 x 8
    ##    faa   name                   lat    lon   alt    tz dst   tzone        
    ##    <chr> <chr>                <dbl>  <dbl> <int> <dbl> <chr> <chr>        
    ##  1 04G   Lansdowne Airport     41.1  -80.6  1044    -5 A     America/New_…
    ##  2 06A   Moton Field Municip…  32.5  -85.7   264    -6 A     America/Chic…
    ##  3 06C   Schaumburg Regional   42.0  -88.1   801    -6 A     America/Chic…
    ##  4 06N   Randall Airport       41.4  -74.4   523    -5 A     America/New_…
    ##  5 09J   Jekyll Island Airpo…  31.1  -81.4    11    -5 A     America/New_…
    ##  6 0A9   Elizabethton Munici…  36.4  -82.2  1593    -5 A     America/New_…
    ##  7 0G6   Williams County Air…  41.5  -84.5   730    -5 A     America/New_…
    ##  8 0G7   Finger Lakes Region…  42.9  -76.8   492    -5 A     America/New_…
    ##  9 0P2   Shoestring Aviation…  39.8  -76.6  1000    -5 U     America/New_…
    ## 10 0S9   Jefferson County In…  48.1 -123.    108    -8 A     America/Los_…
    ## # ... with 1,448 more rows
…
