…
I find that ifelse() is particularly useful, since you can use it to replace only a subset of values in any column of choice. For example, if we wanted to raise the price of all diamonds with a currrent price over 2000 by 3000, we could say:

``` r
(raise_price <- diamonds %>%
  mutate(price = ifelse(price > 2000, price+3000, price)))
```

    ## # A tibble: 53,940 x 10
    ##    carat cut       color clarity depth table price     x     y     z
    ##    <dbl> <ord>     <ord> <ord>   <dbl> <dbl> <dbl> <dbl> <dbl> <dbl>
    ##  1 0.23  Ideal     E     SI2      61.5    55   326  3.95  3.98  2.43
    ##  2 0.21  Premium   E     SI1      59.8    61   326  3.89  3.84  2.31
    ##  3 0.23  Good      E     VS1      56.9    65   327  4.05  4.07  2.31
    ##  4 0.290 Premium   I     VS2      62.4    58   334  4.2   4.23  2.63
    ##  5 0.31  Good      J     SI2      63.3    58   335  4.34  4.35  2.75
    ##  6 0.24  Very Good J     VVS2     62.8    57   336  3.94  3.96  2.48
    ##  7 0.24  Very Good I     VVS1     62.3    57   336  3.95  3.98  2.47
    ##  8 0.26  Very Good H     SI1      61.9    55   337  4.07  4.11  2.53
    ##  9 0.22  Fair      E     VS2      65.1    61   337  3.87  3.78  2.49
    ## 10 0.23  Very Good H     VS1      59.4    61   338  4     4.05  2.39
    ## # ... with 53,930 more rows
…
### 6. If you have a small dataset, it’s sometimes useful to use geom\_jitter() to see the relationship between a continuous and categorical variable. The ggbeeswarm package provides a number of methods similar to geom\_jitter(). List them and briefly describe what each one does.

The plots generated by geom\_jitter() are very similar to the stripchart() from baseR. Here, performing geom\_jitter() on the entire diamonds dataset is not very informative since there are too many datapoints flooding the plot. So, I take a smaller, random sample from the data and plot it using both geom\_jitter() and stripchart(). We can see that the plots are very similar! Next, I use the geom\_quasirandom() plot from the ggbeeswarm package to plot the same data. It produces a more organized plot; rather than random jitter, it groups the points together in a particular fashion (see plot). This makes comparing categories which have different numbers of observations slightly easier, and might reveal some sort of underlying distribution in the data. The method described in the ggbeeswarm github repo is geom\_beeswarm(). This is similar to geom\_quasirandom except for large numbers of observations the points spread out more horizontally and may overlap with other columns.

``` r
# sample 1000 observations randomly from diamonds
(smaller_diamonds <- sample_n(diamonds, 1000, replace = FALSE))
```

    ## # A tibble: 1,000 x 10
    ##    carat cut       color clarity depth table price     x     y     z
    ##    <dbl> <ord>     <ord> <ord>   <dbl> <dbl> <int> <dbl> <dbl> <dbl>
    ##  1  0.32 Ideal     D     VS2      62.2    55   758  4.37  4.41  2.73
    ##  2  0.7  Ideal     E     SI1      61.9    55  2537  5.74  5.77  3.56
    ##  3  0.53 Ideal     D     VS2      61.2    55  1956  5.25  5.21  3.2
    ##  4  0.51 Premium   D     VVS2     62.4    59  2387  5.13  5.06  3.18
    ##  5  0.7  Premium   D     SI2      59.3    59  2562  5.79  5.74  3.42
    ##  6  0.3  Premium   D     SI2      60.9    58   574  4.32  4.29  2.62
    ##  7  1.02 Ideal     G     SI1      62.1    55  5426  6.46  6.49  4.02
    ##  8  1.21 Ideal     E     SI1      61.8    56  8863  6.82  6.86  4.23
    ##  9  0.68 Very Good G     VS1      60.7    58  2114  5.68  5.75  3.47
    ## 10  1.01 Ideal     F     VS1      63.2    56  7209  6.35  6.41  4.03
    ## # ... with 990 more rows
…
The other example in the book is to first count each of the pairs then plot using a heatmap, or geom\_tile(). This shows basically the same information as the plot above, except instead of the size of the dot being bigger with larger counts, the color of the tile changes.

``` r
diamonds %>%
  count(color, cut)
```

    ## # A tibble: 35 x 3
    ##    color cut           n
    ##    <ord> <ord>     <int>
    ##  1 D     Fair        163
    ##  2 D     Good        662
    ##  3 D     Very Good  1513
    ##  4 D     Premium    1603
    ##  5 D     Ideal      2834
    ##  6 E     Fair        224
    ##  7 E     Good        933
    ##  8 E     Very Good  2400
    ##  9 E     Premium    2337
    ## 10 E     Ideal      3903
    ## # ... with 25 more rows
…
``` r
library(modelr)

mod <- lm(log(price) ~ log(carat), data = diamonds)

(diamonds2 <- diamonds %>%
  add_residuals(mod) %>%
  mutate(resid = exp(resid)))
```

    ## # A tibble: 53,940 x 11
    ##    carat cut       color clarity depth table price     x     y     z resid
    ##    <dbl> <ord>     <ord> <ord>   <dbl> <dbl> <int> <dbl> <dbl> <dbl> <dbl>
    ##  1 0.23  Ideal     E     SI2      61.5    55   326  3.95  3.98  2.43 0.820
    ##  2 0.21  Premium   E     SI1      59.8    61   326  3.89  3.84  2.31 0.955
    ##  3 0.23  Good      E     VS1      56.9    65   327  4.05  4.07  2.31 0.822
    ##  4 0.290 Premium   I     VS2      62.4    58   334  4.2   4.23  2.63 0.569
    ##  5 0.31  Good      J     SI2      63.3    58   335  4.34  4.35  2.75 0.511
    ##  6 0.24  Very Good J     VVS2     62.8    57   336  3.94  3.96  2.48 0.787
    ##  7 0.24  Very Good I     VVS1     62.3    57   336  3.95  3.98  2.47 0.787
    ##  8 0.26  Very Good H     SI1      61.9    55   337  4.07  4.11  2.53 0.690
    ##  9 0.22  Fair      E     VS2      65.1    61   337  3.87  3.78  2.49 0.913
    ## 10 0.23  Very Good H     VS1      59.4    61   338  4     4.05  2.39 0.850
    ## # ... with 53,930 more rows
…
