…
### 3. If you have the name of a variable stored in an object, e.g. var &lt;- "mpg", how can you extract the reference variable from a tibble?

If the name of the variable is stored in an object, you can pass the object in lieu of the variable name using \[\[\]\] or \[\] just as you would do so with the explicit variable name. You can even pass the object and another variable name to obtain multiple reference variables using c(). I provide an example below using the diamonds dataset.

``` r
var <- "carat"
var2 <- c("carat","price")

# extract only carat
diamonds[,var]
```

    ## # A tibble: 53,940 x 1
    ##    carat
    ##    <dbl>
    ##  1 0.230
    ##  2 0.210
    ##  3 0.230
    ##  4 0.290
    ##  5 0.310
    ##  6 0.240
    ##  7 0.240
    ##  8 0.260
    ##  9 0.220
    ## 10 0.230
    ## # ... with 53,930 more rows

``` r
#extract carat and price
diamonds[,c(var,"price")]
```

    ## # A tibble: 53,940 x 2
    ##    carat price
    ##    <dbl> <int>
    ##  1 0.230   326
    ##  2 0.210   326
    ##  3 0.230   327
    ##  4 0.290   334
    ##  5 0.310   335
    ##  6 0.240   336
    ##  7 0.240   336
    ##  8 0.260   337
    ##  9 0.220   337
    ## 10 0.230   338
    ## # ... with 53,930 more rows

``` r
diamonds[,var2]
```

    ## # A tibble: 53,940 x 2
    ##    carat price
    ##    <dbl> <int>
    ##  1 0.230   326
    ##  2 0.210   326
    ##  3 0.230   327
    ##  4 0.290   334
    ##  5 0.310   335
    ##  6 0.240   336
    ##  7 0.240   336
    ##  8 0.260   337
    ##  9 0.220   337
    ## 10 0.230   338
    ## # ... with 53,930 more rows
…
### 5. What does tibble::enframe() do? When might you use it?

Taken from the documentation: "enframe() converts named atomic vectors or lists to two-column data frames. For unnamed vectors, the natural sequence is used as name column." I might use this when I have a vector that I want to turn into a data.frame for graphing using ggplot, which requires data be in data.frame or tibble.

``` r
x = rnorm(100)
names(x) <- c(5:104)
enframe(x)
```

    ## # A tibble: 100 x 2
    ##    name    value
    ##    <chr>   <dbl>
    ##  1 5      0.590 
    ##  2 6      1.22  
    ##  3 7     -1.44  
    ##  4 8     -2.80  
    ##  5 9      0.629 
    ##  6 10     0.409 
    ##  7 11     0.781 
    ##  8 12     0.239 
    ##  9 13    -0.671 
    ## 10 14    -0.0352
    ## # ... with 90 more rows
``` r
class(enframe(x))
```

    ## [1] "tbl_df"     "tbl"        "data.frame"

### 6. What option controls how many additional column names are printed at the footer of a tibble?

The documentation for ?format.tbl (tibble formatting) says that the n\_extra argument will control how many additional columns to print abbreviated information for. The example provided in the documentation is below, which only prints 2 of the additional columns (whereas the unmodified print(flights) would yield 5 additional columns in the footer).

``` r
print(nycflights13::flights, n_extra = 2)
```

    ## # A tibble: 336,776 x 19
    ##     year month   day dep_time sched_dep_time dep_delay arr_time
    ##    <int> <int> <int>    <int>          <int>     <dbl>    <int>
    ##  1  2013     1     1      517            515        2.      830
    ##  2  2013     1     1      533            529        4.      850
    ##  3  2013     1     1      542            540        2.      923
    ##  4  2013     1     1      544            545       -1.     1004
    ##  5  2013     1     1      554            600       -6.      812
    ##  6  2013     1     1      554            558       -4.      740
    ##  7  2013     1     1      555            600       -5.      913
    ##  8  2013     1     1      557            600       -3.      709
    ##  9  2013     1     1      557            600       -3.      838
    ## 10  2013     1     1      558            600       -2.      753
    ## # ... with 336,766 more rows, and 12 more variables: sched_arr_time <int>,
    ## #   arr_delay <dbl>, …
…
