Chapter 7 | R for Data Science Walkthrough
…
If there are unusual values in your dataset, you can either filter them out using filter(), or replace the values with NA using mutate(). Below are the provided examples for both:

# remove using filter()
diamonds2 <- diamonds %>% 
  filter(between(y, 3, 20))
# replace with NA using mutate and ifelse()
diamonds2 <- diamonds %>% 
  mutate(y = ifelse(y < 3 | y > 20, NA, y))

I find that ifelse() is particularly useful, since you can use it to replace only a subset of values in any column of choice. For example, if we wanted to raise the price of all diamonds with a currrent price over 2000 by 3000, we could say:

(raise_price <- diamonds %>% 
  mutate(price = ifelse(price > 2000, price+3000, price)))

## # A tibble: 53,940 x 10
##    carat cut       color clarity depth table price     x     y     z
##    <dbl> <ord>     <ord> <ord>   <dbl> <dbl> <dbl> <dbl> <dbl> <dbl>
##  1 0.23  Ideal     E     SI2      61.5    55   326  3.95  3.98  2.43
##  2 0.21  Premium   E     SI1      59.8    61   326  3.89  3.84  2.31
##  3 0.23  Good      E     VS1      56.9    65   327  4.05  4.07  2.31
##  4 0.290 Premium   I     VS2      62.4    58   334  4.2   4.23  2.63
##  5 0.31  Good      J     SI2      63.3    58   335  4.34  4.35  2.75
##  6 0.24  Very Good J     VVS2     62.8    57   336  3.94  3.96  2.48
##  7 0.24  Very Good I     VVS1     62.3    57   336  3.95  3.98  2.47
##  8 0.26  Very Good H     SI1      61.9    55   337  4.07  4.11  2.53
##  9 0.22  Fair      E     VS2      65.1    61   337  3.87  3.78  2.49
## 10 0.23  Very Good H     VS1      59.4    61   338  4     4.05  2.39
## # … with 53,930 more rows
…
6. If you have a small dataset, it’s sometimes useful to use geom_jitter() to see the relationship between a continuous and categorical variable. The ggbeeswarm package provides a number of methods similar to geom_jitter(). List them and briefly describe what each one does.

The plots generated by geom_jitter() are very similar to the stripchart() from baseR. Here, performing geom_jitter() on the entire diamonds dataset is not very informative since there are too many datapoints flooding the plot. So, I take a smaller, random sample from the data and plot it using both geom_jitter() and stripchart(). We can see that the plots are very similar! Next, I use the geom_quasirandom() plot from the ggbeeswarm package to plot the same data. It produces a more organized plot; rather than random jitter, it groups the points together in a particular fashion (see plot). This makes comparing categories which have different numbers of observations slightly easier, and might reveal some sort of underlying distribution in the data. The method described in the ggbeeswarm github repo is geom_beeswarm(). This is similar to geom_quasirandom except for large numbers of observations the points spread out more horizontally and may overlap with other columns.

# sample 1000 observations randomly from diamonds
(smaller_diamonds <- sample_n(diamonds, 1000, replace = FALSE))

## # A tibble: 1,000 x 10
##    carat cut       color clarity depth table price     x     y     z
##    <dbl> <ord>     <ord> <ord>   <dbl> <dbl> <int> <dbl> <dbl> <dbl>
##  1  0.51 Very Good E     SI2      60.3    56  1098  5.19  5.22  3.14
##  2  1.13 Ideal     E     VVS2     60.1    59 11387  6.77  6.81  4.08
##  3  0.74 Ideal     I     VS1      61.1    57  2947  5.83  5.86  3.57
##  4  1.01 Premium   I     SI2      59.6    62  3665  6.56  6.5   3.89
##  5  1.07 Ideal     G     SI2      61.7    57  4421  6.55  6.59  4.05
##  6  0.32 Premium   G     VVS2     62.6    58   936  4.37  4.35  2.73
##  7  0.31 Premium   D     VS1      59.7    58   788  4.4   4.45  2.64
##  8  1.07 Ideal     E     VS2      61.9    56  9177  6.55  6.58  4.06
##  9  0.24 Ideal     F     VS1      62      56   536  3.99  3.94  2.46
## 10  0.93 Very Good E     SI2      63      58  3746  6.16  6.18  3.89
## # … with 990 more rows
…
The other example in the book is to first count each of the pairs then plot using a heatmap, or geom_tile(). This shows basically the same information as the plot above, except instead of the size of the dot being bigger with larger counts, the color of the tile changes.

diamonds %>% 
  count(color, cut)

## # A tibble: 35 x 3
##    color cut           n
##    <ord> <ord>     <int>
##  1 D     Fair        163
##  2 D     Good        662
##  3 D     Very Good  1513
##  4 D     Premium    1603
##  5 D     Ideal      2834
##  6 E     Fair        224
##  7 E     Good        933
##  8 E     Very Good  2400
##  9 E     Premium    2337
## 10 E     Ideal      3903
## # … with 25 more rows
…
library(modelr)

mod <- lm(log(price) ~ log(carat), data = diamonds)

(diamonds2 <- diamonds %>% 
  add_residuals(mod) %>% 
  mutate(resid = exp(resid)))

## # A tibble: 53,940 x 11
##    carat cut       color clarity depth table price     x     y     z resid
##    <dbl> <ord>     <ord> <ord>   <dbl> <dbl> <int> <dbl> <dbl> <dbl> <dbl>
##  1 0.23  Ideal     E     SI2      61.5    55   326  3.95  3.98  2.43 0.820
##  2 0.21  Premium   E     SI1      59.8    61   326  3.89  3.84  2.31 0.955
##  3 0.23  Good      E     VS1      56.9    65   327  4.05  4.07  2.31 0.822
##  4 0.290 Premium   I     VS2      62.4    58   334  4.2   4.23  2.63 0.569
##  5 0.31  Good      J     SI2      63.3    58   335  4.34  4.35  2.75 0.511
##  6 0.24  Very Good J     VVS2     62.8    57   336  3.94  3.96  2.48 0.787
##  7 0.24  Very Good I     VVS1     62.3    57   336  3.95  3.98  2.47 0.787
##  8 0.26  Very Good H     SI1      61.9    55   337  4.07  4.11  2.53 0.690
##  9 0.22  Fair      E     VS2      65.1    61   337  3.87  3.78  2.49 0.913
## 10 0.23  Very Good H     VS1      59.4    61   338  4     4.05  2.39 0.850
## # … with 53,930 more rows
…
