Chapter 11 Data Import | R for Data Science Walkthrough
…
## Warning: 1000 parsing failures.
##  row col           expected     actual                                                                                         file
## 1001   y 1/0/T/F/TRUE/FALSE 2015-01-16 '/Library/Frameworks/R.framework/Versions/3.5/Resources/library/readr/extdata/challenge.csv'
## 1002   y 1/0/T/F/TRUE/FALSE 2018-05-18 '/Library/Frameworks/R.framework/Versions/3.5/Resources/library/readr/extdata/challenge.csv'
## 1003   y 1/0/T/F/TRUE/FALSE 2015-09-05 '/Library/Frameworks/R.framework/Versions/3.5/Resources/library/readr/extdata/challenge.csv'
## 1004   y 1/0/T/F/TRUE/FALSE 2012-11-28 '/Library/Frameworks/R.framework/Versions/3.5/Resources/library/readr/extdata/challenge.csv'
## 1005   y 1/0/T/F/TRUE/FALSE 2020-01-13 '/Library/Frameworks/R.framework/Versions/3.5/Resources/library/readr/extdata/challenge.csv'
## .... ... .................. .......... ............................................................................................
## See problems(...) for more details.

Since the default only looks at the first 1000 rows, we can run into issues if the first 1000 rows or more have troubling characteristics. Here there are many issues displayed in the output after attempting to read the file in. It is very helpful that the error output displays what the function attempted to do. We see that it attempted to parse column x using col_integer(), and column y using col_character(). We can see more details by using problems():

problems(challenge)

## # A tibble: 1,000 x 5
##      row col   expected      actual   file                                 
##    <int> <chr> <chr>         <chr>    <chr>                                
##  1  1001 y     1/0/T/F/TRUE… 2015-01… '/Library/Frameworks/R.framework/Ver…
##  2  1002 y     1/0/T/F/TRUE… 2018-05… '/Library/Frameworks/R.framework/Ver…
##  3  1003 y     1/0/T/F/TRUE… 2015-09… '/Library/Frameworks/R.framework/Ver…
##  4  1004 y     1/0/T/F/TRUE… 2012-11… '/Library/Frameworks/R.framework/Ver…
##  5  1005 y     1/0/T/F/TRUE… 2020-01… '/Library/Frameworks/R.framework/Ver…
##  6  1006 y     1/0/T/F/TRUE… 2016-04… '/Library/Frameworks/R.framework/Ver…
##  7  1007 y     1/0/T/F/TRUE… 2011-05… '/Library/Frameworks/R.framework/Ver…
##  8  1008 y     1/0/T/F/TRUE… 2020-07… '/Library/Frameworks/R.framework/Ver…
##  9  1009 y     1/0/T/F/TRUE… 2011-04… '/Library/Frameworks/R.framework/Ver…
## 10  1010 y     1/0/T/F/TRUE… 2010-05… '/Library/Frameworks/R.framework/Ver…
## # … with 990 more rows
…
## [1] "double"

typeof(challenge$y)

## [1] "double"

Hadley recommends that we should always examine the output of the read_() function and re-specify the col_parsers to match what is appropriate for the data. One strategy around this that he describes, which I think would probably be more straightforward if you have many, many columns of data, is to read everything in as a character, then use type_convert() on the table to convert to the appropriate types. We can see in the example below that type_convert() properly converts column x to double and column y to date formats.

challenge2 <- read_csv(readr_example("challenge.csv"),
  col_types = cols(.default = col_character())
)
challenge2

## # A tibble: 2,000 x 2
##    x     y    
##    <chr> <chr>
##  1 404   <NA> 
##  2 4172  <NA> 
##  3 3004  <NA> 
##  4 787   <NA> 
##  5 37    <NA> 
##  6 2332  <NA> 
##  7 2489  <NA> 
##  8 1449  <NA> 
##  9 3665  <NA> 
## 10 3863  <NA> 
## # … with 1,990 more rows

type_convert(challenge2)

## Parsed with column specification:
## cols(
##   x = col_double(),
##   y = col_date(format = "")
## )

## # A tibble: 2,000 x 2
##        x y         
##    <dbl> <date>    
##  1   404 NA        
##  2  4172 NA        
##  3  3004 NA        
##  4   787 NA        
##  5    37 NA        
##  6  2332 NA        
##  7  2489 NA        
##  8  1449 NA        
##  9  3665 NA        
## 10  3863 NA        
## # … with 1,990 more rows
…
