…
### 1. One downside of the linear model is that it is sensitive to unusual values because the distance incorporates a squared term. Fit a linear model to the simulated data below, and visualise the results. Rerun a few times to generate different simulated datasets. What do you notice about the model?

In the simulated dataset, there are a couple of outliers that are far displaced from the rest of the points. These outliers can skew the linear approximation, because these points are so 'distant' from the other points in the dataset. Because the linear model tries to minimize the distance between each point and the fitted model (the "residuals"), these outliers will skew the approximation, pulling the line closer to them. The larger the residual, the more it contributes to the RMSE. We notice that the fitted line is slightly skewed towards the direction of the outlying point.

``` r
sim1a <- tibble(
  x = rep(1:10, each = 3),
  y = x * 1.5 + 6 + rt(length(x), df = 2)
)

# first, take a look at the data
sim1a
```

    ## # A tibble: 30 x 2
    ##        x     y
    ##    <int> <dbl>
    ##  1     1 12.1 
    ##  2     1  4.83
    ##  3     1  7.29
    ##  4     2  8.51
    ##  5     2  5.43
    ##  6     2 10.1 
    ##  7     3 10.5 
    ##  8     3 10.8 
    ##  9     3 13.6 
    ## 10     4 14.2 
    ## # … with 20 more rows
…
``` r
sim1 <- sim1 %>% 
  add_residuals(sim1_mod_lm)
sim1
```

    ## # A tibble: 30 x 3
    ##        x     y    resid
    ##    <int> <dbl>    <dbl>
    ##  1     1  4.20 -2.07   
    ##  2     1  7.51  1.24   
    ##  3     1  2.13 -4.15   
    ##  4     2  8.99  0.665  
    ##  5     2 10.2   1.92   
    ##  6     2 11.3   2.97   
    ##  7     3  7.36 -3.02   
    ##  8     3 10.5   0.130  
    ##  9     3 10.5   0.136  
    ## 10     4 12.4   0.00763
    ## # … with 20 more rows
…
``` r
sim1 <- sim1 %>% 
  add_residuals(sim1_mod_loess)
sim1
```

    ## # A tibble: 30 x 3
    ##        x     y  resid
    ##    <int> <dbl>  <dbl>
    ##  1     1  4.20 -1.14 
    ##  2     1  7.51  2.17 
    ##  3     1  2.13 -3.21 
    ##  4     2  8.99  0.714
    ##  5     2 10.2   1.97 
    ##  6     2 11.3   3.02 
    ##  7     3  7.36 -3.45 
    ##  8     3 10.5  -0.304
    ##  9     3 10.5  -0.298
    ## 10     4 12.4  -0.345
    ## # … with 20 more rows
…
``` r
# make predictions
mygrid <- mysim %>% 
  data_grid(x) 
mygrid
```

    ## # A tibble: 1,000 x 1
    ##        x
    ##    <dbl>
    ##  1     1
    ##  2     2
    ##  3     3
    ##  4     4
    ##  5     5
    ##  6     6
    ##  7     7
    ##  8     8
    ##  9     9
    ## 10    10
    ## # … with 990 more rows

``` r
mygrid <- mygrid %>% add_predictions(mysim_mod)
mygrid
```

    ## # A tibble: 1,000 x 2
    ##        x  pred
    ##    <dbl> <dbl>
    ##  1     1  18.4
    ##  2     2  23.4
    ##  3     3  28.4
    ##  4     4  33.3
    ##  5     5  38.3
    ##  6     6  43.3
    ##  7     7  48.3
    ##  8     8  53.3
    ##  9     9  58.3
    ## 10    10  63.3
    ## # … with 990 more rows

``` r
mysim <- mysim %>% add_residuals(mysim_mod)
mysim
```

    ## # A tibble: 1,000 x 3
    ##        x       y   resid
    ##    <dbl>   <dbl>   <dbl>
    ##  1     1   -8.32  -26.7 
    ##  2     2  -75.1   -98.5 
    ##  3     3   33.9     5.58
    ##  4     4 -102.   -135.  
    ##  5     5   93.5    55.2 
    ##  6     6  -56.5   -99.8 
    ##  7     7 -105.   -153.  
    ##  8     8   81.5    28.2 
    ##  9     9  126.     67.8 
    ## 10    10   53.7    -9.56
    ## # … with 990 more rows
…
23.4.5 Exercises
----------------

For categorical variables, the book performs a similar prediction workflow:

``` r
# use the sim2 dataset from modelr
sim2
```

    ## # A tibble: 40 x 2
    ##    x          y
    ##    <chr>  <dbl>
    ##  1 a      1.94 
    ##  2 a      1.18 
    ##  3 a      1.24 
    ##  4 a      2.62 
    ##  5 a      1.11 
    ##  6 a      0.866
    ##  7 a     -0.910
    ##  8 a      0.721
    ##  9 a      0.687
    ## 10 a      2.07 
    ## # … with 30 more rows
…
For using more than one predictor variable (can be a combination of categorical and continuous variables), a similar approach is used:

``` r
# examine data and build models
sim3
```

    ## # A tibble: 120 x 5
    ##       x1 x2      rep      y    sd
    ##    <int> <fct> <int>  <dbl> <dbl>
    ##  1     1 a         1 -0.571     2
    ##  2     1 a         2  1.18      2
    ##  3     1 a         3  2.24      2
    ##  4     1 b         1  7.44      2
    ##  5     1 b         2  8.52      2
    ##  6     1 b         3  7.72      2
    ##  7     1 c         1  6.51      2
    ##  8     1 c         2  5.79      2
    ##  9     1 c         3  6.07      2
    ## 10     1 d         1  2.11      2
    ## # … with 110 more rows

``` r
mod1 <- lm(y ~ x1 + x2, data = sim3)
mod2 <- lm(y ~ x1 * x2, data = sim3)

# inputting multiple variables into data_grid results in it returning all the possible combinations between x1 and x2
grid <- sim3 %>% 
  data_grid(x1, x2) %>% 
  gather_predictions(mod1, mod2)
grid
```

    ## # A tibble: 80 x 4
    ##    model    x1 x2     pred
    ##    <chr> <int> <fct> <dbl>
    ##  1 mod1      1 a      1.67
    ##  2 mod1      1 b      4.56
    ##  3 mod1      1 c      6.48
    ##  4 mod1      1 d      4.03
    ##  5 mod1      2 a      1.48
    ##  6 mod1      2 b      4.37
    ##  7 mod1      2 c      6.28
    ##  8 mod1      2 d      3.84
    ##  9 mod1      3 a      1.28
    ## 10 mod1      3 b      4.17
    ## # … with 70 more rows

Inputting multiple continuous variables into data\_grid will also return all possible combinations, unless you manually specify the combinations as done in the book chapter.

``` r
# examine data and build models
sim4
```

    ## # A tibble: 300 x 4
    ##       x1     x2   rep       y
    ##    <dbl>  <dbl> <int>   <dbl>
    ##  1    -1 -1         1  4.25  
    ##  2    -1 -1         2  1.21  
    ##  3    -1 -1         3  0.353 
    ##  4    -1 -0.778     1 -0.0467
    ##  5    -1 -0.778     2  4.64  
    ##  6    -1 -0.778     3  1.38  
    ##  7    -1 -0.556     1  0.975 
    ##  8    -1 -0.556     2  2.50  
    ##  9    -1 -0.556     3  2.70  
    ## 10    -1 -0.333     1  0.558 
    ## # … with 290 more rows
``` r
mod1 <- lm(y ~ x1 + x2, data = sim4)
mod2 <- lm(y ~ x1 * x2, data = sim4)

# with manual specification of range
grid <- sim4 %>% 
  data_grid(
    x1 = seq_range(x1, 5), 
    x2 = seq_range(x2, 5) 
  ) %>% 
  gather_predictions(mod1, mod2)
grid
```

    ## # A tibble: 50 x 4
    ##    model    x1    x2   pred
    ##    <chr> <dbl> <dbl>  <dbl>
    ##  1 mod1   -1    -1    0.996
    ##  2 mod1   -1    -0.5 -0.395
    ##  3 mod1   -1     0   -1.79 
    ##  4 mod1   -1     0.5 -3.18 
    ##  5 mod1   -1     1   -4.57 
    ##  6 mod1   -0.5  -1    1.91 
    ##  7 mod1   -0.5  -0.5  0.516
    ##  8 mod1   -0.5   0   -0.875
    ##  9 mod1   -0.5   0.5 -2.27 
    ## 10 mod1   -0.5   1   -3.66 
    ## # … with 40 more rows

``` r
# without manual specification of range, provides all combinations of values
grid2 <- sim4 %>% 
  data_grid(
    x1, 
    x2
  ) 
grid2
```

    ## # A tibble: 100 x 2
    ##       x1     x2
    ##    <dbl>  <dbl>
    ##  1    -1 -1    
    ##  2    -1 -0.778
    ##  3    -1 -0.556
    ##  4    -1 -0.333
    ##  5    -1 -0.111
    ##  6    -1  0.111
    ##  7    -1  0.333
    ##  8    -1  0.556
    ##  9    -1  0.778
    ## 10    -1  1    
    ## # … with 90 more rows

### 1. What happens if you repeat the analysis of sim2 using a model without an intercept. What happens to the model equation? What happens to the predictions?

To fit a model to sim2 without an intercept, use "-1" with the formula, as shown. We observe that the model matrix loses the "intercept" column when we use "-1". We then generate predictions using gather\_predictions() on both models. We find that both models generate the same predictions! This is because in both cases, the mean of the observations for each categorical possibility is the optimal fit.

``` r
mod1 <- lm(y ~ x, data = sim2)
model_matrix(sim2, y ~x)
```

    ## # A tibble: 40 x 4
    ##    `(Intercept)`    xb    xc    xd
    ##            <dbl> <dbl> <dbl> <dbl>
    ##  1             1     0     0     0
    ##  2             1     0     0     0
    ##  3             1     0     0     0
    ##  4             1     0     0     0
    ##  5             1     0     0     0
    ##  6             1     0     0     0
    ##  7             1     0     0     0
    ##  8             1     0     0     0
    ##  9             1     0     0     0
    ## 10             1     0     0     0
    ## # … with 30 more rows

``` r
mod2 <- lm(y ~ x - 1, data = sim2)
model_matrix(sim2, y ~x -1)
```

    ## # A tibble: 40 x 4
    ##       xa    xb    xc    xd
    ##    <dbl> <dbl> <dbl> <dbl>
    ##  1     1     0     0     0
    ##  2     1     0     0     0
    ##  3     1     0     0     0
    ##  4     1     0     0     0
    ##  5     1     0     0     0
    ##  6     1     0     0     0
    ##  7     1     0     0     0
    ##  8     1     0     0     0
    ##  9     1     0     0     0
    ## 10     1     0     0     0
    ## # … with 30 more rows
…
### 2. Use model\_matrix() to explore the equations generated for the models I fit to sim3 and sim4. Why is \* a good shorthand for interaction?

The model matrix for y ~ x1 + x2 for sim3 has an intercept, an x1 column, and 3 columns for x2, corresponding to each of the possibilities for the categories in x2. The model matrix for y ~ x1 \* x2 has an these columns as well, but also has x1:x2b, x1:x2c, and x1:x2d, which correspond to the interaction between x1 and each of the categories in x2.

For sim4, since the values of the predictor variables x1 and x2 are both continuous variables, the x2 column does not need to be split up as in sim3. The model matrix consists of 3 columns, an intercept, x1, and x2. Similarly, y ~ x1 \* x2 uses a model matrix of 4 columns, which consists of the 3 mentioned previously and an additional column x1:x2.

is a good shorthand for this interaction because the additional columns that it adds are products. it suggests that changes in values of one variable will affect the value of the other, which is what it is trying to model.

``` r
sim3
```

    ## # A tibble: 120 x 5
    ##       x1 x2      rep      y    sd
    ##    <int> <fct> <int>  <dbl> <dbl>
    ##  1     1 a         1 -0.571     2
    ##  2     1 a         2  1.18      2
    ##  3     1 a         3  2.24      2
    ##  4     1 b         1  7.44      2
    ##  5     1 b         2  8.52      2
    ##  6     1 b         3  7.72      2
    ##  7     1 c         1  6.51      2
    ##  8     1 c         2  5.79      2
    ##  9     1 c         3  6.07      2
    ## 10     1 d         1  2.11      2
    ## # … with 110 more rows

``` r
# models fit to sim3
model_matrix(sim3, y ~ x1 + x2 )
```

    ## # A tibble: 120 x 5
    ##    `(Intercept)`    x1   x2b   x2c   x2d
    ##            <dbl> <dbl> <dbl> <dbl> <dbl>
    ##  1             1     1     0     0     0
    ##  2             1     1     0     0     0
    ##  3             1     1     0     0     0
    ##  4             1     1     1     0     0
    ##  5             1     1     1     0     0
    ##  6             1     1     1     0     0
    ##  7             1     1     0     1     0
    ##  8             1     1     0     1     0
    ##  9             1     1     0     1     0
    ## 10             1     1     0     0     1
    ## # … with 110 more rows

``` r
model_matrix(sim3, y ~ x1 * x2 )
```

    ## # A tibble: 120 x 8
    ##    `(Intercept)`    x1   x2b   x2c   x2d `x1:x2b` `x1:x2c` `x1:x2d`
    ##            <dbl> <dbl> <dbl> <dbl> <dbl>    <dbl>    <dbl>    <dbl>
    ##  1             1     1     0     0     0        0        0        0
    ##  2             1     1     0     0     0        0        0        0
    ##  3             1     1     0     0     0        0        0        0
    ##  4             1     1     1     0     0        1        0        0
    ##  5             1     1     1     0     0        1        0        0
    ##  6             1     1     1     0     0        1        0        0
    ##  7             1     1     0     1     0        0        1        0
    ##  8             1     1     0     1     0        0        1        0
    ##  9             1     1     0     1     0        0        1        0
    ## 10             1     1     0     0     1        0        0        1
    ## # … with 110 more rows

``` r
sim4
```

    ## # A tibble: 300 x 4
    ##       x1     x2   rep       y
    ##    <dbl>  <dbl> <int>   <dbl>
    ##  1    -1 -1         1  4.25  
    ##  2    -1 -1         2  1.21  
    ##  3    -1 -1         3  0.353 
    ##  4    -1 -0.778     1 -0.0467
    ##  5    -1 -0.778     2  4.64  
    ##  6    -1 -0.778     3  1.38  
    ##  7    -1 -0.556     1  0.975 
    ##  8    -1 -0.556     2  2.50  
    ##  9    -1 -0.556     3  2.70  
    ## 10    -1 -0.333     1  0.558 
    ## # … with 290 more rows

``` r
# models fit to sim4
model_matrix(sim4, y ~ x1 + x2 )
```

    ## # A tibble: 300 x 3
    ##    `(Intercept)`    x1     x2
    ##            <dbl> <dbl>  <dbl>
    ##  1             1    -1 -1    
    ##  2             1    -1 -1    
    ##  3             1    -1 -1    
    ##  4             1    -1 -0.778
    ##  5             1    -1 -0.778
    ##  6             1    -1 -0.778
    ##  7             1    -1 -0.556
    ##  8             1    -1 -0.556
    ##  9             1    -1 -0.556
    ## 10             1    -1 -0.333
    ## # … with 290 more rows

``` r
model_matrix(sim4, y ~ x1 * x2 )
```

    ## # A tibble: 300 x 4
    ##    `(Intercept)`    x1     x2 `x1:x2`
    ##            <dbl> <dbl>  <dbl>   <dbl>
    ##  1             1    -1 -1       1    
    ##  2             1    -1 -1       1    
    ##  3             1    -1 -1       1    
    ##  4             1    -1 -0.778   0.778
    ##  5             1    -1 -0.778   0.778
    ##  6             1    -1 -0.778   0.778
    ##  7             1    -1 -0.556   0.556
    ##  8             1    -1 -0.556   0.556
    ##  9             1    -1 -0.556   0.556
    ## 10             1    -1 -0.333   0.333
    ## # … with 290 more rows
…
make_matrix( sim3, "+")
```

    ## # A tibble: 120 x 5
    ##    intercept    x1   x2b   x2c   x2d
    ##        <dbl> <int> <dbl> <dbl> <dbl>
    ##  1         1     1     0     0     0
    ##  2         1     1     0     0     0
    ##  3         1     1     0     0     0
    ##  4         1     1     1     0     0
    ##  5         1     1     1     0     0
    ##  6         1     1     1     0     0
    ##  7         1     1     0     1     0
    ##  8         1     1     0     1     0
    ##  9         1     1     0     1     0
    ## 10         1     1     0     0     1
    ## # … with 110 more rows

``` r
model_matrix( sim3, y ~ x1 + x2)
```

    ## # A tibble: 120 x 5
    ##    `(Intercept)`    x1   x2b   x2c   x2d
    ##            <dbl> <dbl> <dbl> <dbl> <dbl>
    ##  1             1     1     0     0     0
    ##  2             1     1     0     0     0
    ##  3             1     1     0     0     0
    ##  4             1     1     1     0     0
    ##  5             1     1     1     0     0
    ##  6             1     1     1     0     0
    ##  7             1     1     0     1     0
    ##  8             1     1     0     1     0
    ##  9             1     1     0     1     0
    ## 10             1     1     0     0     1
    ## # … with 110 more rows
…
``` r
model_matrix( sim3, y ~ x1 * x2)
```

    ## # A tibble: 120 x 8
    ##    `(Intercept)`    x1   x2b   x2c   x2d `x1:x2b` `x1:x2c` `x1:x2d`
    ##            <dbl> <dbl> <dbl> <dbl> <dbl>    <dbl>    <dbl>    <dbl>
    ##  1             1     1     0     0     0        0        0        0
    ##  2             1     1     0     0     0        0        0        0
    ##  3             1     1     0     0     0        0        0        0
    ##  4             1     1     1     0     0        1        0        0
    ##  5             1     1     1     0     0        1        0        0
    ##  6             1     1     1     0     0        1        0        0
    ##  7             1     1     0     1     0        0        1        0
    ##  8             1     1     0     1     0        0        1        0
    ##  9             1     1     0     1     0        0        1        0
    ## 10             1     1     0     0     1        0        0        1
    ## # … with 110 more rows

### 4. For sim4, which of mod1 and mod2 is better? I think mod2 does a slightly better job at removing patterns, but it’s pretty subtle. Can you come up with a plot to support my claim?

To test which model does a better job, we can look at the residuals for each model by subtracting the predicted values for each model from the true values. A measurement to compare the models would be to calculate the RMSE using these residuals, and choose the model with the lower RMSE. Doing so, we find that mod2 seems to be a better fit. The RMSE for mod2 is 2.0636 whereas the RMSE for mod1 is slightly higher (worse fit), at 2.0998.

``` r
mod1 <- lm(y ~ x1 + x2, data = sim4)
mod2 <- lm(y ~ x1 * x2, data = sim4)

sim4 <- sim4 %>%
  spread_residuals (mod1, mod2)
sim4
```

    ## # A tibble: 300 x 6
    ##       x1     x2   rep       y   mod1   mod2
    ##    <dbl>  <dbl> <int>   <dbl>  <dbl>  <dbl>
    ##  1    -1 -1         1  4.25    3.25   2.30 
    ##  2    -1 -1         2  1.21    0.210 -0.743
    ##  3    -1 -1         3  0.353  -0.643 -1.60 
    ##  4    -1 -0.778     1 -0.0467 -0.425 -1.17 
    ##  5    -1 -0.778     2  4.64    4.26   3.52 
    ##  6    -1 -0.778     3  1.38    0.999  0.258
    ##  7    -1 -0.556     1  0.975   1.22   0.687
    ##  8    -1 -0.556     2  2.50    2.74   2.21 
    ##  9    -1 -0.556     3  2.70    2.95   2.42 
    ## 10    -1 -0.333     1  0.558   1.42   1.10 
    ## # … with 290 more rows
…
24.3.5 Exercises
----------------

``` r
daily <- flights %>% 
  mutate(date = make_date(year, month, day)) %>% 
  group_by(date) %>% 
  summarise(n = n())
daily
```

    ## # A tibble: 365 x 2
    ##    date           n
    ##    <date>     <int>
    ##  1 2013-01-01   842
    ##  2 2013-01-02   943
    ##  3 2013-01-03   914
    ##  4 2013-01-04   915
    ##  5 2013-01-05   720
    ##  6 2013-01-06   832
    ##  7 2013-01-07   933
    ##  8 2013-01-08   899
    ##  9 2013-01-09   902
    ## 10 2013-01-10   932
    ## # … with 355 more rows
…
In order to split the saturdays into terms, I wrote an annotate\_sat() function that takes the wday column and term column from daily and applies the appropriate suffix to each "Sat". Fitting this model (mod3) and comparing it to the mod1 and mod2 described in the chapter shows that there is a slight improvement from mod 1 (no term variable), but that the model does slightly worse than mod2 (each day is termed). The RMSE is midway between mod1 and mod2.

``` r
annotate_sat <- function (wday, term) {
  index <- which (wday == "Sat")
  wday <- as.character(wday)
  wday[index] <- str_c("Sat-", as.character(term)[index])
  wday
}

daily <- daily %>% mutate (wday_sat = annotate_sat(wday,term))
daily
```

    ## # A tibble: 365 x 6
    ##    date           n wday   resid term   wday_sat  
    ##    <date>     <int> <ord>  <dbl> <fct>  <chr>     
    ##  1 2013-01-01   842 Tue   -109.  spring Tue       
    ##  2 2013-01-02   943 Wed    -19.7 spring Wed       
    ##  3 2013-01-03   914 Thu    -51.8 spring Thu       
    ##  4 2013-01-04   915 Fri    -52.5 spring Fri       
    ##  5 2013-01-05   720 Sat    -24.6 spring Sat-spring
    ##  6 2013-01-06   832 Sun    -59.5 spring Sun       
    ##  7 2013-01-07   933 Mon    -41.8 spring Mon       
    ##  8 2013-01-08   899 Tue    -52.4 spring Tue       
    ##  9 2013-01-09   902 Wed    -60.7 spring Wed       
    ## 10 2013-01-10   932 Thu    -33.8 spring Thu       
    ## # … with 355 more rows
…
