Chapter 28 - Graphics for communication | R for Data Science Walkthrough
…
# using geom_line()
mpg_mod <- lm(hwy ~ displ, data = mpg)

grid <- mpg %>% 
  data_grid(displ) %>% 
  add_predictions(mpg_mod) 
grid

## # A tibble: 35 x 2
##    displ  pred
##    <dbl> <dbl>
##  1   1.6  30.0
##  2   1.8  29.3
##  3   1.9  29.0
##  4   2    28.6
##  5   2.2  27.9
##  6   2.4  27.2
##  7   2.5  26.9
##  8   2.7  26.2
##  9   2.8  25.8
## 10   3    25.1
## # … with 25 more rows
…
