Chapter 25 - Many models | R for Data Science Walkthrough
…
            R for Data Science Walkthrough

Chapter 25 - Many models

First, we’ll load and prepare the data used for the exercises in this chapter.

library(gapminder)
by_country <- gapminder %>% 
  group_by(country, continent) %>% 
  nest()

by_country

## # A tibble: 142 x 3
##    country     continent data             
##    <fct>       <fct>     <list>           
##  1 Afghanistan Asia      <tibble [12 × 4]>
##  2 Albania     Europe    <tibble [12 × 4]>
##  3 Algeria     Africa    <tibble [12 × 4]>
##  4 Angola      Africa    <tibble [12 × 4]>
##  5 Argentina   Americas  <tibble [12 × 4]>
##  6 Australia   Oceania   <tibble [12 × 4]>
##  7 Austria     Europe    <tibble [12 × 4]>
##  8 Bahrain     Asia      <tibble [12 × 4]>
##  9 Bangladesh  Asia      <tibble [12 × 4]>
## 10 Belgium     Europe    <tibble [12 × 4]>
## # … with 132 more rows

## wrapper function to model lifeExp by year
country_model <- function(df) {
  lm(lifeExp ~ year, data = df)
}

## add the model as a list-column to the nested data
by_country <- by_country %>% 
  mutate(model = map(data, country_model))

## Error in mutate_impl(.data, dots): Evaluation error: cannot coerce type 'closure' to vector of type 'character'.

by_country

## # A tibble: 142 x 3
##    country     continent data             
##    <fct>       <fct>     <list>           
##  1 Afghanistan Asia      <tibble [12 × 4]>
##  2 Albania     Europe    <tibble [12 × 4]>
##  3 Algeria     Africa    <tibble [12 × 4]>
##  4 Angola      Africa    <tibble [12 × 4]>
##  5 Argentina   Americas  <tibble [12 × 4]>
##  6 Australia   Oceania   <tibble [12 × 4]>
##  7 Austria     Europe    <tibble [12 × 4]>
##  8 Bahrain     Asia      <tibble [12 × 4]>
##  9 Bangladesh  Asia      <tibble [12 × 4]>
## 10 Belgium     Europe    <tibble [12 × 4]>
## # … with 132 more rows

## calculate residuals based on the nested data and the associated model
by_country <- by_country %>% 
  mutate(
    resids = map2(data, model, add_residuals)
  )

## Error in mutate_impl(.data, dots): Evaluation error: object 'model' not found.

by_country

## # A tibble: 142 x 3
##    country     continent data             
##    <fct>       <fct>     <list>           
##  1 Afghanistan Asia      <tibble [12 × 4]>
##  2 Albania     Europe    <tibble [12 × 4]>
##  3 Algeria     Africa    <tibble [12 × 4]>
##  4 Angola      Africa    <tibble [12 × 4]>
##  5 Argentina   Americas  <tibble [12 × 4]>
##  6 Australia   Oceania   <tibble [12 × 4]>
##  7 Austria     Europe    <tibble [12 × 4]>
##  8 Bahrain     Asia      <tibble [12 × 4]>
##  9 Bangladesh  Asia      <tibble [12 × 4]>
## 10 Belgium     Europe    <tibble [12 × 4]>
## # … with 132 more rows
…
