Chapter 13 - Relational data | R for Data Science Walkthrough
…
“Mutating joins, which add new variables to one data frame from matching observations in another.”

“Filtering joins, which filter observations from one data frame based on whether or not they match an observation in the other table.”

“Set operations, which treat observations as if they were set elements.”

library("tidyverse")
library("nycflights13")

The flights dataset in nycflights13 has tibbles that can be used to practice relational data management:

# the complete flights table
flights

## # A tibble: 336,776 x 19
##     year month   day dep_time sched_dep_time dep_delay arr_time
##    <int> <int> <int>    <int>          <int>     <dbl>    <int>
##  1  2013     1     1      517            515         2      830
##  2  2013     1     1      533            529         4      850
##  3  2013     1     1      542            540         2      923
##  4  2013     1     1      544            545        -1     1004
##  5  2013     1     1      554            600        -6      812
##  6  2013     1     1      554            558        -4      740
##  7  2013     1     1      555            600        -5      913
##  8  2013     1     1      557            600        -3      709
##  9  2013     1     1      557            600        -3      838
## 10  2013     1     1      558            600        -2      753
## # … with 336,766 more rows, and 12 more variables: sched_arr_time <int>,
## #   arr_delay <dbl>, carrier <chr>, flight <int>, tailnum <chr>,
## #   origin <chr>, dest <chr>, air_time <dbl>, distance <dbl>, hour <dbl>,
## #   minute <dbl>, time_hour <dttm>
…
# info on airports
airports

## # A tibble: 1,458 x 8
##    faa   name                    lat    lon   alt    tz dst   tzone        
##    <chr> <chr>                 <dbl>  <dbl> <int> <dbl> <chr> <chr>        
##  1 04G   Lansdowne Airport      41.1  -80.6  1044    -5 A     America/New_…
##  2 06A   Moton Field Municipa…  32.5  -85.7   264    -6 A     America/Chic…
##  3 06C   Schaumburg Regional    42.0  -88.1   801    -6 A     America/Chic…
##  4 06N   Randall Airport        41.4  -74.4   523    -5 A     America/New_…
##  5 09J   Jekyll Island Airport  31.1  -81.4    11    -5 A     America/New_…
##  6 0A9   Elizabethton Municip…  36.4  -82.2  1593    -5 A     America/New_…
##  7 0G6   Williams County Airp…  41.5  -84.5   730    -5 A     America/New_…
##  8 0G7   Finger Lakes Regiona…  42.9  -76.8   492    -5 A     America/New_…
##  9 0P2   Shoestring Aviation …  39.8  -76.6  1000    -5 U     America/New_…
## 10 0S9   Jefferson County Intl  48.1 -123.    108    -8 A     America/Los_…
## # … with 1,448 more rows

# info on individual planes
planes

## # A tibble: 3,322 x 9
##    tailnum  year type       manufacturer  model  engines seats speed engine
##    <chr>   <int> <chr>      <chr>         <chr>    <int> <int> <int> <chr> 
##  1 N10156   2004 Fixed win… EMBRAER       EMB-1…       2    55    NA Turbo…
##  2 N102UW   1998 Fixed win… AIRBUS INDUS… A320-…       2   182    NA Turbo…
##  3 N103US   1999 Fixed win… AIRBUS INDUS… A320-…       2   182    NA Turbo…
##  4 N104UW   1999 Fixed win… AIRBUS INDUS… A320-…       2   182    NA Turbo…
##  5 N10575   2002 Fixed win… EMBRAER       EMB-1…       2    55    NA Turbo…
##  6 N105UW   1999 Fixed win… AIRBUS INDUS… A320-…       2   182    NA Turbo…
##  7 N107US   1999 Fixed win… AIRBUS INDUS… A320-…       2   182    NA Turbo…
##  8 N108UW   1999 Fixed win… AIRBUS INDUS… A320-…       2   182    NA Turbo…
##  9 N109UW   1999 Fixed win… AIRBUS INDUS… A320-…       2   182    NA Turbo…
## 10 N110UW   1999 Fixed win… AIRBUS INDUS… A320-…       2   182    NA Turbo…
## # … with 3,312 more rows

# weater information
weather

## # A tibble: 26,115 x 15
##    origin  year month   day  hour  temp  dewp humid wind_dir wind_speed
##    <chr>  <dbl> <dbl> <int> <int> <dbl> <dbl> <dbl>    <dbl>      <dbl>
##  1 EWR     2013     1     1     1  39.0  26.1  59.4      270      10.4 
##  2 EWR     2013     1     1     2  39.0  27.0  61.6      250       8.06
##  3 EWR     2013     1     1     3  39.0  28.0  64.4      240      11.5 
##  4 EWR     2013     1     1     4  39.9  28.0  62.2      250      12.7 
##  5 EWR     2013     1     1     5  39.0  28.0  64.4      260      12.7 
##  6 EWR     2013     1     1     6  37.9  28.0  67.2      240      11.5 
##  7 EWR     2013     1     1     7  39.0  28.0  64.4      240      15.0 
##  8 EWR     2013     1     1     8  39.9  28.0  62.2      250      10.4 
##  9 EWR     2013     1     1     9  39.9  28.0  62.2      260      15.0 
## 10 EWR     2013     1     1    10  41    28.0  59.6      260      13.8 
## # … with 26,105 more rows, and 5 more variables: wind_gust <dbl>,
## #   precip <dbl>, pressure <dbl>, visib <dbl>, time_hour <dttm>
…
flights connects to airports in two ways: via the origin and dest variables.

flights connects to weather via origin (the location), and year, month, day and hour (the time).

13.2.1 Exercises

1. Imagine you wanted to draw (approximately) the route each plane flies from its origin to its destination. What variables would you need? What tables would you need to combine?

You would need the variables tailnum, which defines individual planes, and the latitude and longitude values of the origin and destination variables. To do this, you can combine the flights table, which connects tailnum to origin and destination, with the airports table, which contains the latitude and longitude of each airport. Here is the join that can be performed:

flights_1 <- left_join(flights, airports, by = c("dest" = "faa"))
flights_2 <- left_join(flights_1, airports, by = c("origin" = "faa"))
flights_2

## # A tibble: 336,776 x 33
##     year month   day dep_time sched_dep_time dep_delay arr_time
##    <int> <int> <int>    <int>          <int>     <dbl>    <int>
##  1  2013     1     1      517            515         2      830
##  2  2013     1     1      533            529         4      850
##  3  2013     1     1      542            540         2      923
##  4  2013     1     1      544            545        -1     1004
##  5  2013     1     1      554            600        -6      812
##  6  2013     1     1      554            558        -4      740
##  7  2013     1     1      555            600        -5      913
##  8  2013     1     1      557            600        -3      709
##  9  2013     1     1      557            600        -3      838
## 10  2013     1     1      558            600        -2      753
## # … with 336,766 more rows, and 26 more variables: sched_arr_time <int>,
## #   arr_delay <dbl>, carrier <chr>, flight <int>, tailnum <chr>,
## #   origin <chr>, dest <chr>, air_time <dbl>, distance <dbl>, hour <dbl>,
## #   minute <dbl>, time_hour <dttm>, name.x <chr>, lat.x <dbl>,
## #   lon.x <dbl>, alt.x <int>, tz.x <dbl>, dst.x <chr>, tzone.x <chr>,
## #   name.y <chr>, lat.y <dbl>, lon.y <dbl>, alt.y <int>, tz.y <dbl>,
## #   dst.y <chr>, tzone.y <chr>

2. I forgot to draw the relationship between weather and airports. What is the relationship and how should it appear in the diagram?

The airports table can be joined to the weather table, in which the primary key is origin in the weather table and the foreign key is the faa column in the airports table. For each observation in weather, information about the airport can be appended as a new column. For example:

weather_airports <- left_join(weather, airports, by = c("origin" = "faa"))
weather_airports

## # A tibble: 26,115 x 22
##    origin  year month   day  hour  temp  dewp humid wind_dir wind_speed
##    <chr>  <dbl> <dbl> <int> <int> <dbl> <dbl> <dbl>    <dbl>      <dbl>
##  1 EWR     2013     1     1     1  39.0  26.1  59.4      270      10.4 
##  2 EWR     2013     1     1     2  39.0  27.0  61.6      250       8.06
##  3 EWR     2013     1     1     3  39.0  28.0  64.4      240      11.5 
##  4 EWR     2013     1     1     4  39.9  28.0  62.2      250      12.7 
##  5 EWR     2013     1     1     5  39.0  28.0  64.4      260      12.7 
##  6 EWR     2013     1     1     6  37.9  28.0  67.2      240      11.5 
##  7 EWR     2013     1     1     7  39.0  28.0  64.4      240      15.0 
##  8 EWR     2013     1     1     8  39.9  28.0  62.2      250      10.4 
##  9 EWR     2013     1     1     9  39.9  28.0  62.2      260      15.0 
## 10 EWR     2013     1     1    10  41    28.0  59.6      260      13.8 
## # … with 26,105 more rows, and 12 more variables: wind_gust <dbl>,
## #   precip <dbl>, pressure <dbl>, visib <dbl>, time_hour <dttm>,
## #   name <chr>, lat <dbl>, lon <dbl>, alt <int>, tz <dbl>, dst <chr>,
## #   tzone <chr>
…
You could have a separate data frame containing the variables month, day, and “special”, in which the “special” days would be designated TRUE. This could be connected to the existing tables using the primary key consisting of month, and day (should probably include the year as well, depending on the holiday). The value for the “special” column would be appended to the corresponding foriegn key values as TRUE or FALSE. For example, below is a table containing some special days of the year (Christmas, New Years), that is joined to the flights table.

special <- tribble (
  ~month, ~day, ~event,
  12, 25, TRUE,
  1, 1, TRUE
)
left_join(flights, special) %>%
  select (year, month, day, flight, event) %>%
  mutate ( event = (!is.na(event)))

## Joining, by = c("month", "day")

## # A tibble: 336,776 x 5
##     year month   day flight event
##    <int> <dbl> <dbl>  <int> <lgl>
##  1  2013     1     1   1545 TRUE 
##  2  2013     1     1   1714 TRUE 
##  3  2013     1     1   1141 TRUE 
##  4  2013     1     1    725 TRUE 
##  5  2013     1     1    461 TRUE 
##  6  2013     1     1   1696 TRUE 
##  7  2013     1     1    507 TRUE 
##  8  2013     1     1   5708 TRUE 
##  9  2013     1     1     79 TRUE 
## 10  2013     1     1    301 TRUE 
## # … with 336,766 more rows
…
If there are no variables in the dataset that can serve as primary keys, we can create a primary key with mutate() and row_number(). This is called a surrogate key.

# combination of year, month, day, flight is not adequate as a primary key.
# A surrogate key must be added. See 13.3.1 exercises for an example of adding a surrogate key.
flights %>%
  count(year, month, day, flight) %>%
  filter(n > 1)

## # A tibble: 29,768 x 5
##     year month   day flight     n
##    <int> <int> <int>  <int> <int>
##  1  2013     1     1      1     2
##  2  2013     1     1      3     2
##  3  2013     1     1      4     2
##  4  2013     1     1     11     3
##  5  2013     1     1     15     2
##  6  2013     1     1     21     2
##  7  2013     1     1     27     4
##  8  2013     1     1     31     2
##  9  2013     1     1     32     2
## 10  2013     1     1     35     2
## # … with 29,758 more rows

How a primary key from one table matches a foreign key in another table is what is called the relation. Depending on how they match, we can perform joins or other set operations, based on the values present in both keys.

13.3.1 Exercises

1. Add a surrogate key to flights.

# add a surrogate key to flights, display vs flight
flights %>%
  transmute (flight, surrogate_key = row_number() )

## # A tibble: 336,776 x 2
##    flight surrogate_key
##     <int>         <int>
##  1   1545             1
##  2   1714             2
##  3   1141             3
##  4    725             4
##  5    461             5
##  6   1696             6
##  7    507             7
##  8   5708             8
##  9     79             9
## 10    301            10
## # … with 336,766 more rows
…
## [1] 102816

# method 2
group_by(Lahman::Batting, playerID, yearID,stint) %>%
  count() %>%
  nrow()

## [1] 102816

babynames::babynames

## # A tibble: 1,924,665 x 5
##     year sex   name          n   prop
##    <dbl> <chr> <chr>     <int>  <dbl>
##  1  1880 F     Mary       7065 0.0724
##  2  1880 F     Anna       2604 0.0267
##  3  1880 F     Emma       2003 0.0205
##  4  1880 F     Elizabeth  1939 0.0199
##  5  1880 F     Minnie     1746 0.0179
##  6  1880 F     Margaret   1578 0.0162
##  7  1880 F     Ida        1472 0.0151
##  8  1880 F     Alice      1414 0.0145
##  9  1880 F     Bertha     1320 0.0135
## 10  1880 F     Sarah      1288 0.0132
## # … with 1,924,655 more rows

dim(babynames::babynames)

## [1] 1924665       5

group_by(babynames::babynames, year, sex,name) %>%
  count() %>%
  nrow()

## [1] 1924665

nasaweather::atmos

## # A tibble: 41,472 x 11
##      lat  long  year month surftemp  temp pressure ozone cloudlow cloudmid
##    <dbl> <dbl> <int> <int>    <dbl> <dbl>    <dbl> <dbl>    <dbl>    <dbl>
##  1  36.2 -114.  1995     1     273.  272.      835   304      7.5     34.5
##  2  33.7 -114.  1995     1     280.  282.      940   304     11.5     32.5
##  3  31.2 -114.  1995     1     285.  285.      960   298     16.5     26  
##  4  28.7 -114.  1995     1     289.  291.      990   276     20.5     14.5
##  5  26.2 -114.  1995     1     292.  293.     1000   274     26       10.5
##  6  23.7 -114.  1995     1     294.  294.     1000   264     30        9.5
##  7  21.2 -114.  1995     1     295   295.     1000   258     29.5     11  
##  8  18.7 -114.  1995     1     298.  297.     1000   252     26.5     17.5
##  9  16.2 -114.  1995     1     300.  298.     1000   250     27.5     18.5
## 10  13.7 -114.  1995     1     300.  299.     1000   250     26       16.5
## # … with 41,462 more rows, and 1 more variable: cloudhigh <dbl>

dim(nasaweather::atmos)

## [1] 41472    11

group_by(nasaweather::atmos, lat, long, year, month) %>%
  count() %>%
  nrow()

## [1] 41472

fueleconomy::vehicles

## # A tibble: 33,442 x 12
##       id make   model  year class trans drive   cyl displ fuel    hwy   cty
##    <int> <chr>  <chr> <int> <chr> <chr> <chr> <int> <dbl> <chr> <int> <int>
##  1 27550 AM Ge… DJ P…  1984 Spec… Auto… 2-Wh…     4   2.5 Regu…    17    18
##  2 28426 AM Ge… DJ P…  1984 Spec… Auto… 2-Wh…     4   2.5 Regu…    17    18
##  3 27549 AM Ge… FJ8c…  1984 Spec… Auto… 2-Wh…     6   4.2 Regu…    13    13
##  4 28425 AM Ge… FJ8c…  1984 Spec… Auto… 2-Wh…     6   4.2 Regu…    13    13
##  5  1032 AM Ge… Post…  1985 Spec… Auto… Rear…     4   2.5 Regu…    17    16
##  6  1033 AM Ge… Post…  1985 Spec… Auto… Rear…     6   4.2 Regu…    13    13
##  7  3347 ASC I… GNX    1987 Mids… Auto… Rear…     6   3.8 Prem…    21    14
##  8 13309 Acura  2.2C…  1997 Subc… Auto… Fron…     4   2.2 Regu…    26    20
##  9 13310 Acura  2.2C…  1997 Subc… Manu… Fron…     4   2.2 Regu…    28    22
## 10 13311 Acura  2.2C…  1997 Subc… Auto… Fron…     6   3   Regu…    26    18
## # … with 33,432 more rows

dim(fueleconomy::vehicles)

## [1] 33442    12

group_by(fueleconomy::vehicles, id) %>%
  count() %>%
  nrow()

## [1] 33442

ggplot2::diamonds

## # A tibble: 53,940 x 10
##    carat cut       color clarity depth table price     x     y     z
##    <dbl> <ord>     <ord> <ord>   <dbl> <dbl> <int> <dbl> <dbl> <dbl>
##  1 0.23  Ideal     E     SI2      61.5    55   326  3.95  3.98  2.43
##  2 0.21  Premium   E     SI1      59.8    61   326  3.89  3.84  2.31
##  3 0.23  Good      E     VS1      56.9    65   327  4.05  4.07  2.31
##  4 0.290 Premium   I     VS2      62.4    58   334  4.2   4.23  2.63
##  5 0.31  Good      J     SI2      63.3    58   335  4.34  4.35  2.75
##  6 0.24  Very Good J     VVS2     62.8    57   336  3.94  3.96  2.48
##  7 0.24  Very Good I     VVS1     62.3    57   336  3.95  3.98  2.47
##  8 0.26  Very Good H     SI1      61.9    55   337  4.07  4.11  2.53
##  9 0.22  Fair      E     VS2      65.1    61   337  3.87  3.78  2.49
## 10 0.23  Very Good H     VS1      59.4    61   338  4     4.05  2.39
## # … with 53,930 more rows

diamonds_withkey <- ggplot2::diamonds %>%
  mutate (surrogate_key = row_number())
diamonds_withkey

## # A tibble: 53,940 x 11
##    carat cut   color clarity depth table price     x     y     z
##    <dbl> <ord> <ord> <ord>   <dbl> <dbl> <int> <dbl> <dbl> <dbl>
##  1 0.23  Ideal E     SI2      61.5    55   326  3.95  3.98  2.43
##  2 0.21  Prem… E     SI1      59.8    61   326  3.89  3.84  2.31
##  3 0.23  Good  E     VS1      56.9    65   327  4.05  4.07  2.31
##  4 0.290 Prem… I     VS2      62.4    58   334  4.2   4.23  2.63
##  5 0.31  Good  J     SI2      63.3    58   335  4.34  4.35  2.75
##  6 0.24  Very… J     VVS2     62.8    57   336  3.94  3.96  2.48
##  7 0.24  Very… I     VVS1     62.3    57   336  3.95  3.98  2.47
##  8 0.26  Very… H     SI1      61.9    55   337  4.07  4.11  2.53
##  9 0.22  Fair  E     VS2      65.1    61   337  3.87  3.78  2.49
## 10 0.23  Very… H     VS1      59.4    61   338  4     4.05  2.39
## # … with 53,930 more rows, and 1 more variable: surrogate_key <int>

3. Draw a diagram illustrating the connections between the Batting, Master, and Salaries tables in the Lahman package. Draw another diagram that shows the relationship between Master, Managers, AwardsManagers. How would you characterise the relationship between the Batting, Pitching, and Fielding tables?

Batting connects to Master using playerID, and with Salaries through playerID, yearID, teamID, and lgID. Master connects with Salaries through playerID.

Master connects with Managers and with AwardsManagers through playerID. Managers connects with AwardsManagers using playerID, year, and lgID.

Batting, Pitching, and Fielding all connect with each other through playerID, yearID, stint, teamID, and lgID. They are just variables for this key categorized into different tables based on the type of play. You could also just use playerID, yearID, and stint to get a unique key for these tables.

library(Lahman)

as_tibble(Batting)

## # A tibble: 102,816 x 22
##    playerID yearID stint teamID lgID      G    AB     R     H   X2B   X3B
##    <chr>     <int> <int> <fct>  <fct> <int> <int> <int> <int> <int> <int>
##  1 abercda…   1871     1 TRO    NA        1     4     0     0     0     0
##  2 addybo01   1871     1 RC1    NA       25   118    30    32     6     0
##  3 allisar…   1871     1 CL1    NA       29   137    28    40     4     5
##  4 allisdo…   1871     1 WS3    NA       27   133    28    44    10     2
##  5 ansonca…   1871     1 RC1    NA       25   120    29    39    11     3
##  6 armstbo…   1871     1 FW1    NA       12    49     9    11     2     1
##  7 barkeal…   1871     1 RC1    NA        1     4     0     1     0     0
##  8 barnero…   1871     1 BS1    NA       31   157    66    63    10     9
##  9 barrebi…   1871     1 FW1    NA        1     5     1     1     1     0
## 10 barrofr…   1871     1 BS1    NA       18    86    13    13     2     1
## # … with 102,806 more rows, and 11 more variables: HR <int>, RBI <int>,
## #   SB <int>, CS <int>, BB <int>, SO <int>, IBB <int>, HBP <int>,
## #   SH <int>, SF <int>, GIDP <int>
…
